simulation/qsim/contador.msim.vcd
$comment
	File created using the following command:
		vcd file contador.msim.vcd -direction
$end
$date
	Thu Jun 13 02:05:00 2019
$end
$version
	ModelSim Version 10.5b
$end
$timescale
	1ps
$end

$scope module contador_vhd_vec_tst $end
$var wire 1 ! b_reset $end
$var wire 1 " clock $end
$var wire 1 # LED00_out [0] $end
$var wire 1 $ LED00_out [1] $end
$var wire 1 % LED00_out [2] $end
$var wire 1 & LED00_out [3] $end
$var wire 1 ' LED00_out [4] $end
$var wire 1 ( LED00_out [5] $end
$var wire 1 ) LED00_out [6] $end
$var wire 1 * LED01_out [0] $end
$var wire 1 + LED01_out [1] $end
$var wire 1 , LED01_out [2] $end
$var wire 1 - LED01_out [3] $end
$var wire 1 . LED01_out [4] $end
$var wire 1 / LED01_out [5] $end
$var wire 1 0 LED01_out [6] $end
$var wire 1 1 LED10_out [0] $end
$var wire 1 2 LED10_out [1] $end
$var wire 1 3 LED10_out [2] $end
$var wire 1 4 LED10_out [3] $end
$var wire 1 5 LED10_out [4] $end
$var wire 1 6 LED10_out [5] $end
$var wire 1 7 LED10_out [6] $end
$var wire 1 8 LED11_out [0] $end
$var wire 1 9 LED11_out [1] $end
$var wire 1 : LED11_out [2] $end
$var wire 1 ; LED11_out [3] $end
$var wire 1 < LED11_out [4] $end
$var wire 1 = LED11_out [5] $end
$var wire 1 > LED11_out [6] $end
$var wire 1 ? LED_contagem $end
$var wire 1 @ LED_parado $end
$var wire 1 A s_contagem $end
$var wire 1 B s_stop $end

$scope module i1 $end
$var wire 1 C gnd $end
$var wire 1 D vcc $end
$var wire 1 E unknown $end
$var wire 1 F devoe $end
$var wire 1 G devclrn $end
$var wire 1 H devpor $end
$var wire 1 I ww_devoe $end
$var wire 1 J ww_devclrn $end
$var wire 1 K ww_devpor $end
$var wire 1 L ww_clock $end
$var wire 1 M ww_b_reset $end
$var wire 1 N ww_s_stop $end
$var wire 1 O ww_s_contagem $end
$var wire 1 P ww_LED_parado $end
$var wire 1 Q ww_LED_contagem $end
$var wire 1 R ww_LED00_out [0] $end
$var wire 1 S ww_LED00_out [1] $end
$var wire 1 T ww_LED00_out [2] $end
$var wire 1 U ww_LED00_out [3] $end
$var wire 1 V ww_LED00_out [4] $end
$var wire 1 W ww_LED00_out [5] $end
$var wire 1 X ww_LED00_out [6] $end
$var wire 1 Y ww_LED01_out [0] $end
$var wire 1 Z ww_LED01_out [1] $end
$var wire 1 [ ww_LED01_out [2] $end
$var wire 1 \ ww_LED01_out [3] $end
$var wire 1 ] ww_LED01_out [4] $end
$var wire 1 ^ ww_LED01_out [5] $end
$var wire 1 _ ww_LED01_out [6] $end
$var wire 1 ` ww_LED10_out [0] $end
$var wire 1 a ww_LED10_out [1] $end
$var wire 1 b ww_LED10_out [2] $end
$var wire 1 c ww_LED10_out [3] $end
$var wire 1 d ww_LED10_out [4] $end
$var wire 1 e ww_LED10_out [5] $end
$var wire 1 f ww_LED10_out [6] $end
$var wire 1 g ww_LED11_out [0] $end
$var wire 1 h ww_LED11_out [1] $end
$var wire 1 i ww_LED11_out [2] $end
$var wire 1 j ww_LED11_out [3] $end
$var wire 1 k ww_LED11_out [4] $end
$var wire 1 l ww_LED11_out [5] $end
$var wire 1 m ww_LED11_out [6] $end
$var wire 1 n \~QUARTUS_CREATED_GND~I_combout\ $end
$var wire 1 o \clock~input_o\ $end
$var wire 1 p \clock~inputCLKENA0_outclk\ $end
$var wire 1 q \s_contagem~input_o\ $end
$var wire 1 r \b_reset~input_o\ $end
$var wire 1 s \contagem00~0_combout\ $end
$var wire 1 t \Add8~53_sumout\ $end
$var wire 1 u \Equal0~2_combout\ $end
$var wire 1 v \Equal0~3_combout\ $end
$var wire 1 w \Equal0~0_combout\ $end
$var wire 1 x \Equal0~1_combout\ $end
$var wire 1 y \Equal0~4_combout\ $end
$var wire 1 z \s_stop~input_o\ $end
$var wire 1 { \Add8~54\ $end
$var wire 1 | \Add8~57_sumout\ $end
$var wire 1 } \Add8~58\ $end
$var wire 1 ~ \Add8~61_sumout\ $end
$var wire 1 !! \Add8~62\ $end
$var wire 1 "! \Add8~65_sumout\ $end
$var wire 1 #! \Add8~66\ $end
$var wire 1 $! \Add8~69_sumout\ $end
$var wire 1 %! \Add8~70\ $end
$var wire 1 &! \Add8~73_sumout\ $end
$var wire 1 '! \Add8~74\ $end
$var wire 1 (! \Add8~77_sumout\ $end
$var wire 1 )! \Add8~78\ $end
$var wire 1 *! \Add8~81_sumout\ $end
$var wire 1 +! \Add8~82\ $end
$var wire 1 ,! \Add8~85_sumout\ $end
$var wire 1 -! \Add8~86\ $end
$var wire 1 .! \Add8~89_sumout\ $end
$var wire 1 /! \Add8~90\ $end
$var wire 1 0! \Add8~93_sumout\ $end
$var wire 1 1! \Add8~94\ $end
$var wire 1 2! \Add8~97_sumout\ $end
$var wire 1 3! \Add8~98\ $end
$var wire 1 4! \Add8~29_sumout\ $end
$var wire 1 5! \Add8~30\ $end
$var wire 1 6! \Add8~33_sumout\ $end
$var wire 1 7! \Add8~34\ $end
$var wire 1 8! \Add8~37_sumout\ $end
$var wire 1 9! \Add8~38\ $end
$var wire 1 :! \Add8~41_sumout\ $end
$var wire 1 ;! \Add8~42\ $end
$var wire 1 <! \Add8~45_sumout\ $end
$var wire 1 =! \Add8~46\ $end
$var wire 1 >! \Add8~49_sumout\ $end
$var wire 1 ?! \Add8~50\ $end
$var wire 1 @! \Add8~5_sumout\ $end
$var wire 1 A! \Add8~6\ $end
$var wire 1 B! \Add8~9_sumout\ $end
$var wire 1 C! \Add8~10\ $end
$var wire 1 D! \Add8~13_sumout\ $end
$var wire 1 E! \Add8~14\ $end
$var wire 1 F! \Add8~17_sumout\ $end
$var wire 1 G! \Add8~18\ $end
$var wire 1 H! \Add8~21_sumout\ $end
$var wire 1 I! \Add8~22\ $end
$var wire 1 J! \Add8~25_sumout\ $end
$var wire 1 K! \Add8~26\ $end
$var wire 1 L! \Add8~1_sumout\ $end
$var wire 1 M! \LED00_out[6]~0_combout\ $end
$var wire 1 N! \Add3~0_combout\ $end
$var wire 1 O! \Add3~1_combout\ $end
$var wire 1 P! \Add3~2_combout\ $end
$var wire 1 Q! \Mux6~0_combout\ $end
$var wire 1 R! \LED00_out[6]~reg0_q\ $end
$var wire 1 S! \Mux5~0_combout\ $end
$var wire 1 T! \LED00_out[5]~reg0_q\ $end
$var wire 1 U! \Mux4~0_combout\ $end
$var wire 1 V! \LED00_out[4]~reg0_q\ $end
$var wire 1 W! \Mux3~0_combout\ $end
$var wire 1 X! \LED00_out[3]~reg0_q\ $end
$var wire 1 Y! \Mux2~0_combout\ $end
$var wire 1 Z! \LED00_out[2]~reg0_q\ $end
$var wire 1 [! \Mux1~0_combout\ $end
$var wire 1 \! \LED00_out[1]~reg0_q\ $end
$var wire 1 ]! \Mux0~0_combout\ $end
$var wire 1 ^! \LED00_out[0]~reg0_q\ $end
$var wire 1 _! \contagem01~0_combout\ $end
$var wire 1 `! \contagem01~1_combout\ $end
$var wire 1 a! \contagem01[3]~2_combout\ $end
$var wire 1 b! \Add2~0_combout\ $end
$var wire 1 c! \Add2~1_combout\ $end
$var wire 1 d! \Add2~2_combout\ $end
$var wire 1 e! \Mux13~0_combout\ $end
$var wire 1 f! \LED01_out[6]~reg0_q\ $end
$var wire 1 g! \Mux12~0_combout\ $end
$var wire 1 h! \LED01_out[5]~reg0_q\ $end
$var wire 1 i! \Mux11~0_combout\ $end
$var wire 1 j! \LED01_out[4]~reg0_q\ $end
$var wire 1 k! \Mux10~0_combout\ $end
$var wire 1 l! \LED01_out[3]~reg0_q\ $end
$var wire 1 m! \Mux9~0_combout\ $end
$var wire 1 n! \LED01_out[2]~reg0_q\ $end
$var wire 1 o! \Mux8~0_combout\ $end
$var wire 1 p! \LED01_out[1]~reg0_q\ $end
$var wire 1 q! \Mux7~0_combout\ $end
$var wire 1 r! \LED01_out[0]~reg0_q\ $end
$var wire 1 s! \contagem01~3_combout\ $end
$var wire 1 t! \contagem01~4_combout\ $end
$var wire 1 u! \contagem10~1_combout\ $end
$var wire 1 v! \contagem10~0_combout\ $end
$var wire 1 w! \contagem10~2_combout\ $end
$var wire 1 x! \Add1~0_combout\ $end
$var wire 1 y! \contagem10~3_combout\ $end
$var wire 1 z! \contagem10[3]~4_combout\ $end
$var wire 1 {! \Add1~1_combout\ $end
$var wire 1 |! \Add1~2_combout\ $end
$var wire 1 }! \Mux20~0_combout\ $end
$var wire 1 ~! \LED10_out[6]~reg0_q\ $end
$var wire 1 !" \Mux19~0_combout\ $end
$var wire 1 "" \LED10_out[5]~reg0_q\ $end
$var wire 1 #" \Mux18~0_combout\ $end
$var wire 1 $" \LED10_out[4]~reg0_q\ $end
$var wire 1 %" \Mux17~0_combout\ $end
$var wire 1 &" \LED10_out[3]~reg0_q\ $end
$var wire 1 '" \Mux16~0_combout\ $end
$var wire 1 (" \LED10_out[2]~reg0_q\ $end
$var wire 1 )" \Mux15~0_combout\ $end
$var wire 1 *" \LED10_out[1]~reg0_q\ $end
$var wire 1 +" \Mux14~0_combout\ $end
$var wire 1 ," \LED10_out[0]~reg0_q\ $end
$var wire 1 -" \contagem11~0_combout\ $end
$var wire 1 ." \contagem11~1_combout\ $end
$var wire 1 /" \contagem10~5_combout\ $end
$var wire 1 0" \contagem11~2_combout\ $end
$var wire 1 1" \Add0~0_combout\ $end
$var wire 1 2" \contagem11[3]~3_combout\ $end
$var wire 1 3" \contagem11[3]~4_combout\ $end
$var wire 1 4" \Add0~1_combout\ $end
$var wire 1 5" \Add0~2_combout\ $end
$var wire 1 6" \Mux27~0_combout\ $end
$var wire 1 7" \LED11_out[6]~reg0_q\ $end
$var wire 1 8" \Mux26~0_combout\ $end
$var wire 1 9" \LED11_out[5]~reg0_q\ $end
$var wire 1 :" \Mux25~0_combout\ $end
$var wire 1 ;" \LED11_out[4]~reg0_q\ $end
$var wire 1 <" \Mux24~0_combout\ $end
$var wire 1 =" \LED11_out[3]~reg0_q\ $end
$var wire 1 >" \Mux23~0_combout\ $end
$var wire 1 ?" \LED11_out[2]~reg0_q\ $end
$var wire 1 @" \Mux22~0_combout\ $end
$var wire 1 A" \LED11_out[1]~reg0_q\ $end
$var wire 1 B" \Mux21~0_combout\ $end
$var wire 1 C" \LED11_out[0]~reg0_q\ $end
$var wire 1 D" contagem00 [3] $end
$var wire 1 E" contagem00 [2] $end
$var wire 1 F" contagem00 [1] $end
$var wire 1 G" contagem00 [0] $end
$var wire 1 H" clockcounter [24] $end
$var wire 1 I" clockcounter [23] $end
$var wire 1 J" clockcounter [22] $end
$var wire 1 K" clockcounter [21] $end
$var wire 1 L" clockcounter [20] $end
$var wire 1 M" clockcounter [19] $end
$var wire 1 N" clockcounter [18] $end
$var wire 1 O" clockcounter [17] $end
$var wire 1 P" clockcounter [16] $end
$var wire 1 Q" clockcounter [15] $end
$var wire 1 R" clockcounter [14] $end
$var wire 1 S" clockcounter [13] $end
$var wire 1 T" clockcounter [12] $end
$var wire 1 U" clockcounter [11] $end
$var wire 1 V" clockcounter [10] $end
$var wire 1 W" clockcounter [9] $end
$var wire 1 X" clockcounter [8] $end
$var wire 1 Y" clockcounter [7] $end
$var wire 1 Z" clockcounter [6] $end
$var wire 1 [" clockcounter [5] $end
$var wire 1 \" clockcounter [4] $end
$var wire 1 ]" clockcounter [3] $end
$var wire 1 ^" clockcounter [2] $end
$var wire 1 _" clockcounter [1] $end
$var wire 1 `" clockcounter [0] $end
$var wire 1 a" contagem01 [3] $end
$var wire 1 b" contagem01 [2] $end
$var wire 1 c" contagem01 [1] $end
$var wire 1 d" contagem01 [0] $end
$var wire 1 e" contagem10 [3] $end
$var wire 1 f" contagem10 [2] $end
$var wire 1 g" contagem10 [1] $end
$var wire 1 h" contagem10 [0] $end
$var wire 1 i" contagem11 [3] $end
$var wire 1 j" contagem11 [2] $end
$var wire 1 k" contagem11 [1] $end
$var wire 1 l" contagem11 [0] $end
$var wire 1 m" ALT_INV_clockcounter [24] $end
$var wire 1 n" ALT_INV_clockcounter [23] $end
$var wire 1 o" ALT_INV_clockcounter [22] $end
$var wire 1 p" ALT_INV_clockcounter [21] $end
$var wire 1 q" ALT_INV_clockcounter [20] $end
$var wire 1 r" ALT_INV_clockcounter [19] $end
$var wire 1 s" ALT_INV_clockcounter [18] $end
$var wire 1 t" ALT_INV_clockcounter [17] $end
$var wire 1 u" ALT_INV_clockcounter [16] $end
$var wire 1 v" ALT_INV_clockcounter [15] $end
$var wire 1 w" ALT_INV_clockcounter [14] $end
$var wire 1 x" ALT_INV_clockcounter [13] $end
$var wire 1 y" ALT_INV_clockcounter [12] $end
$var wire 1 z" ALT_INV_clockcounter [11] $end
$var wire 1 {" ALT_INV_clockcounter [10] $end
$var wire 1 |" ALT_INV_clockcounter [9] $end
$var wire 1 }" ALT_INV_clockcounter [8] $end
$var wire 1 ~" ALT_INV_clockcounter [7] $end
$var wire 1 !# ALT_INV_clockcounter [6] $end
$var wire 1 "# ALT_INV_clockcounter [5] $end
$var wire 1 ## ALT_INV_clockcounter [4] $end
$var wire 1 $# ALT_INV_clockcounter [3] $end
$var wire 1 %# ALT_INV_clockcounter [2] $end
$var wire 1 &# ALT_INV_clockcounter [1] $end
$var wire 1 '# ALT_INV_clockcounter [0] $end
$var wire 1 (# ALT_INV_contagem00 [3] $end
$var wire 1 )# ALT_INV_contagem00 [2] $end
$var wire 1 *# ALT_INV_contagem00 [1] $end
$var wire 1 +# ALT_INV_contagem00 [0] $end
$var wire 1 ,# ALT_INV_contagem01 [3] $end
$var wire 1 -# ALT_INV_contagem01 [2] $end
$var wire 1 .# ALT_INV_contagem01 [1] $end
$var wire 1 /# ALT_INV_contagem01 [0] $end
$var wire 1 0# \ALT_INV_LED00_out[6]~0_combout\ $end
$var wire 1 1# \ALT_INV_Equal0~3_combout\ $end
$var wire 1 2# \ALT_INV_Equal0~2_combout\ $end
$var wire 1 3# \ALT_INV_Equal0~1_combout\ $end
$var wire 1 4# \ALT_INV_Equal0~0_combout\ $end
$var wire 1 5# ALT_INV_contagem11 [3] $end
$var wire 1 6# ALT_INV_contagem11 [2] $end
$var wire 1 7# ALT_INV_contagem11 [1] $end
$var wire 1 8# ALT_INV_contagem11 [0] $end
$var wire 1 9# ALT_INV_contagem10 [3] $end
$var wire 1 :# ALT_INV_contagem10 [2] $end
$var wire 1 ;# ALT_INV_contagem10 [1] $end
$var wire 1 <# ALT_INV_contagem10 [0] $end
$var wire 1 =# \ALT_INV_s_contagem~input_o\ $end
$var wire 1 ># \ALT_INV_b_reset~input_o\ $end
$var wire 1 ?# \ALT_INV_s_stop~input_o\ $end
$var wire 1 @# \ALT_INV_contagem11[3]~3_combout\ $end
$var wire 1 A# \ALT_INV_contagem11~1_combout\ $end
$var wire 1 B# \ALT_INV_contagem11~0_combout\ $end
$var wire 1 C# \ALT_INV_contagem10~5_combout\ $end
$var wire 1 D# \ALT_INV_contagem10~3_combout\ $end
$var wire 1 E# \ALT_INV_contagem10~1_combout\ $end
$var wire 1 F# \ALT_INV_contagem10~0_combout\ $end
$var wire 1 G# \ALT_INV_contagem01~4_combout\ $end
$var wire 1 H# \ALT_INV_contagem01~3_combout\ $end
$var wire 1 I# \ALT_INV_contagem01~1_combout\ $end
$upscope $end
$upscope $end
$enddefinitions $end
#0
$dumpvars
0!
0"
0?
0@
0A
0B
0C
1D
xE
1F
1G
1H
1I
1J
1K
0L
0M
0N
0O
0P
0Q
xn
0o
0p
0q
0r
0s
1t
0u
1v
1w
1x
0y
0z
0{
0|
0}
0~
0!!
0"!
0#!
0$!
0%!
0&!
0'!
0(!
0)!
0*!
0+!
0,!
0-!
0.!
0/!
00!
01!
02!
03!
04!
05!
06!
07!
08!
09!
0:!
0;!
0<!
0=!
0>!
0?!
0@!
0A!
0B!
0C!
0D!
0E!
0F!
0G!
0H!
0I!
0J!
0K!
0L!
0M!
0N!
0O!
0P!
1Q!
0R!
0S!
0T!
0U!
0V!
0W!
0X!
0Y!
0Z!
0[!
0\!
0]!
0^!
0_!
0`!
0a!
0b!
0c!
0d!
1e!
0f!
0g!
0h!
0i!
0j!
0k!
0l!
0m!
0n!
0o!
0p!
0q!
0r!
0s!
0t!
0u!
1v!
0w!
0x!
0y!
0z!
0{!
0|!
1}!
0~!
0!"
0""
0#"
0$"
0%"
0&"
0'"
0("
0)"
0*"
0+"
0,"
0-"
1."
0/"
00"
01"
02"
03"
04"
05"
16"
07"
08"
09"
0:"
0;"
0<"
0="
0>"
0?"
0@"
0A"
0B"
0C"
10#
01#
12#
03#
04#
1=#
1>#
1?#
1@#
0A#
1B#
1C#
1D#
1E#
0F#
1G#
1H#
1I#
0R
0S
0T
0U
0V
0W
0X
0Y
0Z
0[
0\
0]
0^
0_
0`
0a
0b
0c
0d
0e
0f
0g
0h
0i
0j
0k
0l
0m
0D"
0E"
0F"
0G"
0H"
0I"
0J"
0K"
0L"
0M"
0N"
0O"
0P"
0Q"
0R"
0S"
0T"
0U"
0V"
0W"
0X"
0Y"
0Z"
0["
0\"
0]"
0^"
0_"
0`"
0a"
0b"
0c"
0d"
0e"
0f"
0g"
0h"
0i"
0j"
0k"
0l"
1m"
1n"
1o"
1p"
1q"
1r"
1s"
1t"
1u"
1v"
1w"
1x"
1y"
1z"
1{"
1|"
1}"
1~"
1!#
1"#
1##
1$#
1%#
1&#
1'#
1(#
1)#
1*#
1+#
1,#
1-#
1.#
1/#
15#
16#
17#
18#
19#
1:#
1;#
1<#
0#
0$
0%
0&
0'
0(
0)
0*
0+
0,
0-
0.
0/
00
01
02
03
04
05
06
07
08
09
0:
0;
0<
0=
0>
$end
#1250
1"
1L
1o
1p
1`"
0'#
0t
1{
1u
02#
1|
1y
1M!
00#
1a!
1z!
13"
#2500
0"
0L
0o
0p
#3750
1"
1L
1o
1p
0`"
1R!
1f!
1~!
17"
1'#
1t
0{
0u
12#
1m
1f
1_
1X
0|
0y
0M!
1>
17
10
1)
10#
0a!
0z!
03"
#5000
0"
0L
0o
0p
#6250
1"
1L
1o
1p
1`"
0'#
0t
1{
1u
02#
1|
1y
1M!
00#
1a!
1z!
13"
#7500
0"
0L
0o
0p
#8750
1"
1L
1o
1p
0`"
1'#
1t
0{
0u
12#
0|
0y
0M!
10#
0a!
0z!
03"
#10000
0"
0L
0o
0p
#11250
1"
1L
1o
1p
1`"
0'#
0t
1{
1u
02#
1|
1y
1M!
00#
1a!
1z!
13"
#12500
0"
0L
0o
0p
#13750
1"
1L
1o
1p
0`"
1'#
1t
0{
0u
12#
0|
0y
0M!
10#
0a!
0z!
03"
#15000
0"
0L
0o
0p
#16250
1"
1L
1o
1p
1`"
0'#
0t
1{
1u
02#
1|
1y
1M!
00#
1a!
1z!
13"
#17500
0"
0L
0o
0p
#18750
1"
1L
1o
1p
0`"
1'#
1t
0{
0u
12#
0|
0y
0M!
10#
0a!
0z!
03"
#20000
0"
0L
0o
0p
#21250
1"
1L
1o
1p
1`"
0'#
0t
1{
1u
02#
1|
1y
1M!
00#
1a!
1z!
13"
#22500
0"
0L
0o
0p
#23750
1"
1L
1o
1p
0`"
1'#
1t
0{
0u
12#
0|
0y
0M!
10#
0a!
0z!
03"
#25000
0"
0L
0o
0p
#26250
1"
1L
1o
1p
1`"
0'#
0t
1{
1u
02#
1|
1y
1M!
00#
1a!
1z!
13"
#27500
0"
0L
0o
0p
#28750
1"
1L
1o
1p
0`"
1'#
1t
0{
0u
12#
0|
0y
0M!
10#
0a!
0z!
03"
#30000
0"
0L
0o
0p
#31250
1"
1L
1o
1p
1`"
0'#
0t
1{
1u
02#
1|
1y
1M!
00#
1a!
1z!
13"
#32500
0"
0L
0o
0p
#33750
1"
1L
1o
1p
0`"
1'#
1t
0{
0u
12#
0|
0y
0M!
10#
0a!
0z!
03"
#35000
0"
0L
0o
0p
#36250
1"
1L
1o
1p
1`"
0'#
0t
1{
1u
02#
1|
1y
1M!
00#
1a!
1z!
13"
#37500
0"
0L
0o
0p
#38750
1"
1L
1o
1p
0`"
1'#
1t
0{
0u
12#
0|
0y
0M!
10#
0a!
0z!
03"
#40000
0"
0L
0o
0p
#41250
1"
1L
1o
1p
1`"
0'#
0t
1{
1u
02#
1|
1y
1M!
00#
1a!
1z!
13"
#42500
0"
0L
0o
0p
#43750
1"
1L
1o
1p
0`"
1'#
1t
0{
0u
12#
0|
0y
0M!
10#
0a!
0z!
03"
#45000
0"
0L
0o
0p
#46250
1"
1L
1o
1p
1`"
0'#
0t
1{
1u
02#
1|
1y
1M!
00#
1a!
1z!
13"
#47500
0"
0L
0o
0p
#48750
1"
1L
1o
1p
0`"
1'#
1t
0{
0u
12#
0|
0y
0M!
10#
0a!
0z!
03"
#50000
0"
0L
0o
0p
#51250
1"
1L
1o
1p
1`"
0'#
0t
1{
1u
02#
1|
1y
1M!
00#
1a!
1z!
13"
#52500
0"
0L
0o
0p
#53750
1"
1L
1o
1p
0`"
1'#
1t
0{
0u
12#
0|
0y
0M!
10#
0a!
0z!
03"
#55000
0"
0L
0o
0p
#56250
1"
1L
1o
1p
1`"
0'#
0t
1{
1u
02#
1|
1y
1M!
00#
1a!
1z!
13"
#57500
0"
0L
0o
0p
#58750
1"
1L
1o
1p
0`"
1'#
1t
0{
0u
12#
0|
0y
0M!
10#
0a!
0z!
03"
#60000
0"
0L
0o
0p
#61250
1"
1L
1o
1p
1`"
0'#
0t
1{
1u
02#
1|
1y
1M!
00#
1a!
1z!
13"
#62500
0"
0L
0o
0p
#63750
1"
1L
1o
1p
0`"
1'#
1t
0{
0u
12#
0|
0y
0M!
10#
0a!
0z!
03"
#65000
0"
0L
0o
0p
#66250
1"
1L
1o
1p
1`"
0'#
0t
1{
1u
02#
1|
1y
1M!
00#
1a!
1z!
13"
#67500
0"
0L
0o
0p
#68750
1"
1L
1o
1p
0`"
1'#
1t
0{
0u
12#
0|
0y
0M!
10#
0a!
0z!
03"
#70000
0"
0L
0o
0p
#71250
1"
1L
1o
1p
1`"
0'#
0t
1{
1u
02#
1|
1y
1M!
00#
1a!
1z!
13"
#72500
0"
0L
0o
0p
#73750
1"
1L
1o
1p
0`"
1'#
1t
0{
0u
12#
0|
0y
0M!
10#
0a!
0z!
03"
#75000
0"
0L
0o
0p
#76250
1"
1L
1o
1p
1`"
0'#
0t
1{
1u
02#
1|
1y
1M!
00#
1a!
1z!
13"
#77500
0"
0L
0o
0p
#78750
1"
1L
1o
1p
0`"
1'#
1t
0{
0u
12#
0|
0y
0M!
10#
0a!
0z!
03"
#80000
0"
1!
0L
1M
1r
0o
0p
0>#
1s
1_!
#81250
1"
1L
1o
1p
1`"
0'#
0t
1{
1u
02#
1|
1y
1M!
00#
#82500
0"
0L
0o
0p
#83750
1"
1L
1o
1p
0`"
1G"
0+#
1'#
1t
0{
0u
0s
1N!
1S!
1U!
1W!
1]!
12#
0|
0y
0M!
10#
#85000
0"
1B
0L
1N
1z
0o
0p
0?#
#86250
1"
1L
1o
1p
#87500
0"
0L
0o
0p
#88750
1"
1L
1o
1p
#90000
0"
0L
0o
0p
#91250
1"
1L
1o
1p
#92500
0"
0L
0o
0p
#93750
1"
1L
1o
1p
#95000
0"
0L
0o
0p
#96250
1"
1L
1o
1p
#97500
0"
0L
0o
0p
#98750
1"
1L
1o
1p
#100000
0"
0B
0L
0N
0z
0o
0p
1?#
#101250
1"
1L
1o
1p
1`"
0'#
0t
1{
1u
02#
1|
1y
1M!
00#
#102500
0"
0L
0o
0p
#103750
1"
1L
1o
1p
0`"
0G"
1F"
1T!
1V!
1X!
1^!
0*#
1+#
1'#
1t
0{
0u
1s
0Q!
0U!
0W!
1Y!
0]!
12#
1R
1U
1V
1W
0|
0y
0M!
1(
1'
1&
1#
10#
#105000
0"
0L
0o
0p
#106250
1"
1L
1o
1p
1`"
0'#
0t
1{
1u
02#
1|
1y
1M!
00#
#107500
0"
0L
0o
0p
#108750
1"
1L
1o
1p
0`"
1G"
0R!
0V!
0X!
1Z!
0^!
0+#
1'#
1t
0{
0u
0s
0N!
1O!
1U!
0Y!
12#
0R
1T
0U
0V
0X
0|
0y
0M!
0)
0'
0&
1%
0#
10#
#110000
0"
0L
0o
0p
#111250
1"
1L
1o
1p
1`"
0'#
0t
1{
1u
02#
1|
1y
1M!
00#
#112500
0"
0L
0o
0p
#113750
1"
1L
1o
1p
0`"
0G"
0F"
1E"
1V!
0Z!
0)#
1*#
1+#
1'#
1t
0{
0u
1s
1]!
12#
0T
1V
0|
0y
0M!
1'
0%
10#
#115000
0"
0L
0o
0p
#116250
1"
1L
1o
1p
1`"
0'#
0t
1{
1u
02#
1|
1y
1M!
00#
#117500
0"
0L
0o
0p
#118750
1"
1L
1o
1p
0`"
1G"
1^!
0+#
1'#
1t
0{
0u
0s
1N!
0S!
1[!
0]!
12#
1R
0|
0y
0M!
1#
10#
#120000
0"
0L
0o
0p
#121250
1"
1L
1o
1p
1`"
0'#
0t
1{
1u
02#
1|
1y
1M!
00#
#122500
0"
0L
0o
0p
#123750
1"
1L
1o
1p
0`"
0G"
1F"
0T!
1\!
0^!
0*#
1+#
1'#
1t
0{
0u
1s
0U!
12#
0R
1S
0W
0|
0y
0M!
0(
1$
0#
10#
#125000
0"
0L
0o
0p
#126250
1"
1L
1o
1p
1`"
0'#
0t
1{
1u
02#
1|
1y
1M!
00#
#127500
0"
0L
0o
0p
#128750
1"
1L
1o
1p
0`"
1G"
0V!
0+#
1'#
1t
0{
0u
0s
0N!
0O!
1P!
1Q!
1S!
1U!
1W!
0[!
12#
0V
0|
0y
0M!
0'
10#
#130000
0"
0L
0o
0p
#131250
1"
1L
1o
1p
1`"
0'#
0t
1{
1u
02#
1|
1y
1M!
00#
#132500
0"
0L
0o
0p
#133750
1"
1L
1o
1p
0`"
0G"
0F"
0E"
1D"
1R!
1T!
1V!
1X!
0\!
0(#
1)#
1*#
1+#
1'#
1t
0{
0u
1s
0Q!
0S!
0U!
0W!
12#
0S
1U
1V
1W
1X
0|
0y
0M!
1)
1(
1'
1&
0$
10#
#135000
0"
0L
0o
0p
#136250
1"
1L
1o
1p
1`"
0'#
0t
1{
1u
02#
1|
1y
1M!
00#
#137500
0"
0L
0o
0p
#138750
1"
1L
1o
1p
0`"
1G"
0R!
0T!
0V!
0X!
0+#
1'#
1t
0{
0u
0s
1N!
1U!
12#
0U
0V
0W
0X
0|
0y
0M!
0)
0(
0'
0&
10#
#140000
0"
0L
0o
0p
#141250
1"
1L
1o
1p
1`"
0'#
0t
1{
1u
02#
1|
1y
1M!
00#
#142500
0"
0L
0o
0p
#143750
1"
1L
1o
1p
0`"
0G"
1F"
1V!
0*#
1+#
1'#
1t
0{
0u
1s
1S!
0U!
12#
1V
0|
0y
0M!
1'
10#
#145000
0"
0L
0o
0p
#146250
1"
1L
1o
1p
1`"
0'#
0t
1{
1u
02#
1|
1y
1M!
00#
#147500
0"
0L
0o
0p
#148750
1"
1L
1o
1p
0`"
1G"
1T!
0V!
0+#
1'#
1t
0{
0u
0s
0N!
1O!
0S!
1[!
1]!
12#
0V
1W
0|
0y
0M!
1(
0'
10#
#150000
0"
1A
0L
1O
1q
0o
0p
0=#
1N!
0O!
1b!
1c!
1d!
1x!
1y!
1{!
1|!
11"
12"
14"
15"
0@#
0D#
#151250
1"
1L
1o
1p
1`"
0'#
0t
1{
1u
02#
1|
1y
1M!
00#
#152500
0"
0L
0o
0p
#153750
1"
1L
1o
1p
0`"
0G"
0T!
1\!
1^!
1+#
1'#
1t
0{
0u
1s
0N!
1S!
0[!
0]!
12#
1R
1S
0W
0|
0y
0M!
0(
1$
1#
10#
#155000
0"
0L
0o
0p
#156250
1"
1L
1o
1p
1`"
0'#
0t
1{
1u
02#
1|
1y
1M!
00#
#157500
0"
0L
0o
0p
#158750
1"
1L
1o
1p
0`"
1G"
0F"
1T!
0\!
0^!
1*#
0+#
1'#
1t
0{
0u
0s
0S!
1U!
12#
0R
0S
1W
0|
0y
0M!
1(
0$
0#
10#
#160000
0"
0L
0o
0p
#161250
1"
1L
1o
1p
1`"
0'#
0t
1{
1u
02#
1|
1y
1M!
00#
#162500
0"
0L
0o
0p
#163750
1"
1L
1o
1p
0`"
0G"
0T!
1V!
1+#
1'#
1t
0{
0u
1s
1N!
1O!
0P!
0U!
12#
1V
0W
0|
0y
0M!
0(
1'
10#
#165000
0"
0L
0o
0p
#166250
1"
1L
1o
1p
1`"
0'#
0t
1{
1u
02#
1|
1y
1M!
00#
#167500
0"
0L
0o
0p
#168750
1"
1L
1o
1p
0`"
1G"
1F"
1E"
0D"
0V!
1(#
0)#
0*#
0+#
1'#
1t
0{
0u
0s
1Q!
1S!
1U!
1W!
12#
0V
0|
0y
0M!
0'
10#
#170000
0"
0L
0o
0p
#171250
1"
1L
1o
1p
1`"
0'#
0t
1{
1u
02#
1|
1y
1M!
00#
#172500
0"
0L
0o
0p
#173750
1"
1L
1o
1p
0`"
0G"
1R!
1T!
1V!
1X!
1+#
1'#
1t
0{
0u
1s
0N!
0Q!
0S!
0U!
0W!
1[!
12#
1U
1V
1W
1X
0|
0y
0M!
1)
1(
1'
1&
10#
#175000
0"
0L
0o
0p
#176250
1"
1L
1o
1p
1`"
0'#
0t
1{
1u
02#
1|
1y
1M!
00#
#177500
0"
0L
0o
0p
#178750
1"
1L
1o
1p
0`"
1G"
0F"
0R!
0T!
0V!
0X!
1\!
1*#
0+#
1'#
1t
0{
0u
0s
1U!
12#
1S
0U
0V
0W
0X
0|
0y
0M!
0)
0(
0'
0&
1$
10#
#180000
0"
0L
0o
0p
#181250
1"
1L
1o
1p
1`"
0'#
0t
1{
1u
02#
1|
1y
1M!
00#
#182500
0"
0L
0o
0p
