simulation/qsim/contador.msim.vcd
$comment
	File created using the following command:
		vcd file contador.msim.vcd -direction
$end
$date
	Thu Jun 13 00:02:34 2019
$end
$version
	ModelSim Version 10.5b
$end
$timescale
	1ps
$end

$scope module contador_vhd_vec_tst $end
$var wire 1 ! clock $end
$var wire 1 " LED00_out [0] $end
$var wire 1 # LED00_out [1] $end
$var wire 1 $ LED00_out [2] $end
$var wire 1 % LED00_out [3] $end
$var wire 1 & LED00_out [4] $end
$var wire 1 ' LED00_out [5] $end
$var wire 1 ( LED00_out [6] $end
$var wire 1 ) LED01_out [0] $end
$var wire 1 * LED01_out [1] $end
$var wire 1 + LED01_out [2] $end
$var wire 1 , LED01_out [3] $end
$var wire 1 - LED01_out [4] $end
$var wire 1 . LED01_out [5] $end
$var wire 1 / LED01_out [6] $end
$var wire 1 0 LED10_out [0] $end
$var wire 1 1 LED10_out [1] $end
$var wire 1 2 LED10_out [2] $end
$var wire 1 3 LED10_out [3] $end
$var wire 1 4 LED10_out [4] $end
$var wire 1 5 LED10_out [5] $end
$var wire 1 6 LED10_out [6] $end
$var wire 1 7 LED11_out [0] $end
$var wire 1 8 LED11_out [1] $end
$var wire 1 9 LED11_out [2] $end
$var wire 1 : LED11_out [3] $end
$var wire 1 ; LED11_out [4] $end
$var wire 1 < LED11_out [5] $end
$var wire 1 = LED11_out [6] $end
$var wire 1 > reset $end
$var wire 1 ? switch $end

$scope module i1 $end
$var wire 1 @ gnd $end
$var wire 1 A vcc $end
$var wire 1 B unknown $end
$var wire 1 C devoe $end
$var wire 1 D devclrn $end
$var wire 1 E devpor $end
$var wire 1 F ww_devoe $end
$var wire 1 G ww_devclrn $end
$var wire 1 H ww_devpor $end
$var wire 1 I ww_clock $end
$var wire 1 J ww_reset $end
$var wire 1 K ww_switch $end
$var wire 1 L ww_LED00_out [0] $end
$var wire 1 M ww_LED00_out [1] $end
$var wire 1 N ww_LED00_out [2] $end
$var wire 1 O ww_LED00_out [3] $end
$var wire 1 P ww_LED00_out [4] $end
$var wire 1 Q ww_LED00_out [5] $end
$var wire 1 R ww_LED00_out [6] $end
$var wire 1 S ww_LED01_out [0] $end
$var wire 1 T ww_LED01_out [1] $end
$var wire 1 U ww_LED01_out [2] $end
$var wire 1 V ww_LED01_out [3] $end
$var wire 1 W ww_LED01_out [4] $end
$var wire 1 X ww_LED01_out [5] $end
$var wire 1 Y ww_LED01_out [6] $end
$var wire 1 Z ww_LED10_out [0] $end
$var wire 1 [ ww_LED10_out [1] $end
$var wire 1 \ ww_LED10_out [2] $end
$var wire 1 ] ww_LED10_out [3] $end
$var wire 1 ^ ww_LED10_out [4] $end
$var wire 1 _ ww_LED10_out [5] $end
$var wire 1 ` ww_LED10_out [6] $end
$var wire 1 a ww_LED11_out [0] $end
$var wire 1 b ww_LED11_out [1] $end
$var wire 1 c ww_LED11_out [2] $end
$var wire 1 d ww_LED11_out [3] $end
$var wire 1 e ww_LED11_out [4] $end
$var wire 1 f ww_LED11_out [5] $end
$var wire 1 g ww_LED11_out [6] $end
$var wire 1 h \~QUARTUS_CREATED_GND~I_combout\ $end
$var wire 1 i \clock~input_o\ $end
$var wire 1 j \clock~inputCLKENA0_outclk\ $end
$var wire 1 k \reset~input_o\ $end
$var wire 1 l \contagem00~0_combout\ $end
$var wire 1 m \Add8~53_sumout\ $end
$var wire 1 n \clockcounter[0]~DUPLICATE_q\ $end
$var wire 1 o \Add8~54\ $end
$var wire 1 p \Add8~57_sumout\ $end
$var wire 1 q \Add8~58\ $end
$var wire 1 r \Add8~61_sumout\ $end
$var wire 1 s \Add8~62\ $end
$var wire 1 t \Add8~65_sumout\ $end
$var wire 1 u \Add8~66\ $end
$var wire 1 v \Add8~69_sumout\ $end
$var wire 1 w \Add8~70\ $end
$var wire 1 x \Add8~73_sumout\ $end
$var wire 1 y \Add8~74\ $end
$var wire 1 z \Add8~77_sumout\ $end
$var wire 1 { \Add8~78\ $end
$var wire 1 | \Add8~81_sumout\ $end
$var wire 1 } \Add8~82\ $end
$var wire 1 ~ \Add8~85_sumout\ $end
$var wire 1 !! \Add8~86\ $end
$var wire 1 "! \Add8~89_sumout\ $end
$var wire 1 #! \Add8~90\ $end
$var wire 1 $! \Add8~93_sumout\ $end
$var wire 1 %! \Add8~94\ $end
$var wire 1 &! \Add8~97_sumout\ $end
$var wire 1 '! \clockcounter[11]~DUPLICATE_q\ $end
$var wire 1 (! \Add8~98\ $end
$var wire 1 )! \Add8~29_sumout\ $end
$var wire 1 *! \clockcounter[12]~DUPLICATE_q\ $end
$var wire 1 +! \Add8~30\ $end
$var wire 1 ,! \Add8~33_sumout\ $end
$var wire 1 -! \Add8~34\ $end
$var wire 1 .! \Add8~37_sumout\ $end
$var wire 1 /! \Add8~38\ $end
$var wire 1 0! \Add8~41_sumout\ $end
$var wire 1 1! \Add8~42\ $end
$var wire 1 2! \Add8~45_sumout\ $end
$var wire 1 3! \Add8~46\ $end
$var wire 1 4! \Add8~49_sumout\ $end
$var wire 1 5! \Add8~50\ $end
$var wire 1 6! \Add8~5_sumout\ $end
$var wire 1 7! \Add8~6\ $end
$var wire 1 8! \Add8~9_sumout\ $end
$var wire 1 9! \clockcounter[19]~DUPLICATE_q\ $end
$var wire 1 :! \Add8~10\ $end
$var wire 1 ;! \Add8~13_sumout\ $end
$var wire 1 <! \Add8~14\ $end
$var wire 1 =! \Add8~17_sumout\ $end
$var wire 1 >! \Add8~18\ $end
$var wire 1 ?! \Add8~21_sumout\ $end
$var wire 1 @! \Add8~22\ $end
$var wire 1 A! \Add8~25_sumout\ $end
$var wire 1 B! \Add8~26\ $end
$var wire 1 C! \Add8~1_sumout\ $end
$var wire 1 D! \Equal0~3_combout\ $end
$var wire 1 E! \Equal0~2_combout\ $end
$var wire 1 F! \Equal0~0_combout\ $end
$var wire 1 G! \Equal0~1_combout\ $end
$var wire 1 H! \Equal0~4_combout\ $end
$var wire 1 I! \switch~input_o\ $end
$var wire 1 J! \Add3~0_combout\ $end
$var wire 1 K! \Add3~1_combout\ $end
$var wire 1 L! \Add3~2_combout\ $end
$var wire 1 M! \Mux6~0_combout\ $end
$var wire 1 N! \LED00_out[6]~reg0_q\ $end
$var wire 1 O! \Mux5~0_combout\ $end
$var wire 1 P! \LED00_out[5]~reg0_q\ $end
$var wire 1 Q! \Mux4~0_combout\ $end
$var wire 1 R! \LED00_out[4]~reg0_q\ $end
$var wire 1 S! \Mux3~0_combout\ $end
$var wire 1 T! \LED00_out[3]~reg0_q\ $end
$var wire 1 U! \Mux2~0_combout\ $end
$var wire 1 V! \LED00_out[2]~reg0_q\ $end
$var wire 1 W! \Mux1~0_combout\ $end
$var wire 1 X! \LED00_out[1]~reg0_q\ $end
$var wire 1 Y! \Mux0~0_combout\ $end
$var wire 1 Z! \LED00_out[0]~reg0_q\ $end
$var wire 1 [! \contagem01~0_combout\ $end
$var wire 1 \! \contagem01[3]~1_combout\ $end
$var wire 1 ]! \contagem01[3]~2_combout\ $end
$var wire 1 ^! \Add2~0_combout\ $end
$var wire 1 _! \Add2~1_combout\ $end
$var wire 1 `! \Add2~2_combout\ $end
$var wire 1 a! \Mux13~0_combout\ $end
$var wire 1 b! \LED01_out[6]~reg0_q\ $end
$var wire 1 c! \Mux12~0_combout\ $end
$var wire 1 d! \LED01_out[5]~reg0_q\ $end
$var wire 1 e! \Mux11~0_combout\ $end
$var wire 1 f! \LED01_out[4]~reg0_q\ $end
$var wire 1 g! \Mux10~0_combout\ $end
$var wire 1 h! \LED01_out[3]~reg0_q\ $end
$var wire 1 i! \Mux9~0_combout\ $end
$var wire 1 j! \LED01_out[2]~reg0_q\ $end
$var wire 1 k! \Mux8~0_combout\ $end
$var wire 1 l! \LED01_out[1]~reg0_q\ $end
$var wire 1 m! \Mux7~0_combout\ $end
$var wire 1 n! \LED01_out[0]~reg0_q\ $end
$var wire 1 o! \contagem10~1_combout\ $end
$var wire 1 p! \contagem10~0_combout\ $end
$var wire 1 q! \contagem01~3_combout\ $end
$var wire 1 r! \contagem01~4_combout\ $end
$var wire 1 s! \contagem10~2_combout\ $end
$var wire 1 t! \Add1~0_combout\ $end
$var wire 1 u! \contagem10~3_combout\ $end
$var wire 1 v! \contagem01~5_combout\ $end
$var wire 1 w! \contagem10[3]~4_combout\ $end
$var wire 1 x! \Add1~1_combout\ $end
$var wire 1 y! \Add1~2_combout\ $end
$var wire 1 z! \Mux20~0_combout\ $end
$var wire 1 {! \LED10_out[6]~reg0_q\ $end
$var wire 1 |! \Mux19~0_combout\ $end
$var wire 1 }! \LED10_out[5]~reg0_q\ $end
$var wire 1 ~! \Mux18~0_combout\ $end
$var wire 1 !" \LED10_out[4]~reg0_q\ $end
$var wire 1 "" \Mux17~0_combout\ $end
$var wire 1 #" \LED10_out[3]~reg0_q\ $end
$var wire 1 $" \Mux16~0_combout\ $end
$var wire 1 %" \LED10_out[2]~reg0_q\ $end
$var wire 1 &" \Mux15~0_combout\ $end
$var wire 1 '" \LED10_out[1]~reg0_q\ $end
$var wire 1 (" \Mux14~0_combout\ $end
$var wire 1 )" \LED10_out[0]~reg0_q\ $end
$var wire 1 *" \contagem11~0_combout\ $end
$var wire 1 +" \contagem10~5_combout\ $end
$var wire 1 ," \contagem11~1_combout\ $end
$var wire 1 -" \contagem11~2_combout\ $end
$var wire 1 ." \Add0~0_combout\ $end
$var wire 1 /" \contagem11[3]~3_combout\ $end
$var wire 1 0" \contagem11[3]~4_combout\ $end
$var wire 1 1" \Add0~1_combout\ $end
$var wire 1 2" \Add0~2_combout\ $end
$var wire 1 3" \Mux27~0_combout\ $end
$var wire 1 4" \LED11_out[6]~reg0_q\ $end
$var wire 1 5" \Mux26~0_combout\ $end
$var wire 1 6" \LED11_out[5]~reg0_q\ $end
$var wire 1 7" \Mux25~0_combout\ $end
$var wire 1 8" \LED11_out[4]~reg0_q\ $end
$var wire 1 9" \Mux24~0_combout\ $end
$var wire 1 :" \LED11_out[3]~reg0_q\ $end
$var wire 1 ;" \Mux23~0_combout\ $end
$var wire 1 <" \LED11_out[2]~reg0_q\ $end
$var wire 1 =" \Mux22~0_combout\ $end
$var wire 1 >" \LED11_out[1]~reg0_q\ $end
$var wire 1 ?" \Mux21~0_combout\ $end
$var wire 1 @" \LED11_out[0]~reg0_q\ $end
$var wire 1 A" contagem00 [3] $end
$var wire 1 B" contagem00 [2] $end
$var wire 1 C" contagem00 [1] $end
$var wire 1 D" contagem00 [0] $end
$var wire 1 E" clockcounter [24] $end
$var wire 1 F" clockcounter [23] $end
$var wire 1 G" clockcounter [22] $end
$var wire 1 H" clockcounter [21] $end
$var wire 1 I" clockcounter [20] $end
$var wire 1 J" clockcounter [19] $end
$var wire 1 K" clockcounter [18] $end
$var wire 1 L" clockcounter [17] $end
$var wire 1 M" clockcounter [16] $end
$var wire 1 N" clockcounter [15] $end
$var wire 1 O" clockcounter [14] $end
$var wire 1 P" clockcounter [13] $end
$var wire 1 Q" clockcounter [12] $end
$var wire 1 R" clockcounter [11] $end
$var wire 1 S" clockcounter [10] $end
$var wire 1 T" clockcounter [9] $end
$var wire 1 U" clockcounter [8] $end
$var wire 1 V" clockcounter [7] $end
$var wire 1 W" clockcounter [6] $end
$var wire 1 X" clockcounter [5] $end
$var wire 1 Y" clockcounter [4] $end
$var wire 1 Z" clockcounter [3] $end
$var wire 1 [" clockcounter [2] $end
$var wire 1 \" clockcounter [1] $end
$var wire 1 ]" clockcounter [0] $end
$var wire 1 ^" contagem01 [3] $end
$var wire 1 _" contagem01 [2] $end
$var wire 1 `" contagem01 [1] $end
$var wire 1 a" contagem01 [0] $end
$var wire 1 b" contagem10 [3] $end
$var wire 1 c" contagem10 [2] $end
$var wire 1 d" contagem10 [1] $end
$var wire 1 e" contagem10 [0] $end
$var wire 1 f" contagem11 [3] $end
$var wire 1 g" contagem11 [2] $end
$var wire 1 h" contagem11 [1] $end
$var wire 1 i" contagem11 [0] $end
$var wire 1 j" ALT_INV_clockcounter [24] $end
$var wire 1 k" ALT_INV_clockcounter [23] $end
$var wire 1 l" ALT_INV_clockcounter [22] $end
$var wire 1 m" ALT_INV_clockcounter [21] $end
$var wire 1 n" ALT_INV_clockcounter [20] $end
$var wire 1 o" ALT_INV_clockcounter [19] $end
$var wire 1 p" ALT_INV_clockcounter [18] $end
$var wire 1 q" ALT_INV_clockcounter [17] $end
$var wire 1 r" ALT_INV_clockcounter [16] $end
$var wire 1 s" ALT_INV_clockcounter [15] $end
$var wire 1 t" ALT_INV_clockcounter [14] $end
$var wire 1 u" ALT_INV_clockcounter [13] $end
$var wire 1 v" ALT_INV_clockcounter [12] $end
$var wire 1 w" ALT_INV_clockcounter [11] $end
$var wire 1 x" ALT_INV_clockcounter [10] $end
$var wire 1 y" ALT_INV_clockcounter [9] $end
$var wire 1 z" ALT_INV_clockcounter [8] $end
$var wire 1 {" ALT_INV_clockcounter [7] $end
$var wire 1 |" ALT_INV_clockcounter [6] $end
$var wire 1 }" ALT_INV_clockcounter [5] $end
$var wire 1 ~" ALT_INV_clockcounter [4] $end
$var wire 1 !# ALT_INV_clockcounter [3] $end
$var wire 1 "# ALT_INV_clockcounter [2] $end
$var wire 1 ## ALT_INV_clockcounter [1] $end
$var wire 1 $# ALT_INV_clockcounter [0] $end
$var wire 1 %# ALT_INV_contagem00 [3] $end
$var wire 1 &# ALT_INV_contagem00 [2] $end
$var wire 1 '# ALT_INV_contagem00 [1] $end
$var wire 1 (# ALT_INV_contagem00 [0] $end
$var wire 1 )# ALT_INV_contagem01 [3] $end
$var wire 1 *# ALT_INV_contagem01 [2] $end
$var wire 1 +# ALT_INV_contagem01 [1] $end
$var wire 1 ,# ALT_INV_contagem01 [0] $end
$var wire 1 -# \ALT_INV_Equal0~4_combout\ $end
$var wire 1 .# \ALT_INV_Equal0~3_combout\ $end
$var wire 1 /# \ALT_INV_Equal0~2_combout\ $end
$var wire 1 0# \ALT_INV_Equal0~1_combout\ $end
$var wire 1 1# \ALT_INV_Equal0~0_combout\ $end
$var wire 1 2# ALT_INV_contagem11 [3] $end
$var wire 1 3# ALT_INV_contagem11 [2] $end
$var wire 1 4# ALT_INV_contagem11 [1] $end
$var wire 1 5# ALT_INV_contagem11 [0] $end
$var wire 1 6# ALT_INV_contagem10 [3] $end
$var wire 1 7# ALT_INV_contagem10 [2] $end
$var wire 1 8# ALT_INV_contagem10 [1] $end
$var wire 1 9# ALT_INV_contagem10 [0] $end
$var wire 1 :# \ALT_INV_clockcounter[11]~DUPLICATE_q\ $end
$var wire 1 ;# \ALT_INV_clockcounter[0]~DUPLICATE_q\ $end
$var wire 1 <# \ALT_INV_clockcounter[12]~DUPLICATE_q\ $end
$var wire 1 =# \ALT_INV_clockcounter[19]~DUPLICATE_q\ $end
$var wire 1 ># \ALT_INV_switch~input_o\ $end
$var wire 1 ?# \ALT_INV_reset~input_o\ $end
$var wire 1 @# \ALT_INV_contagem11[3]~3_combout\ $end
$var wire 1 A# \ALT_INV_contagem11~1_combout\ $end
$var wire 1 B# \ALT_INV_contagem11~0_combout\ $end
$var wire 1 C# \ALT_INV_contagem10~5_combout\ $end
$var wire 1 D# \ALT_INV_contagem10~3_combout\ $end
$var wire 1 E# \ALT_INV_contagem01~5_combout\ $end
$var wire 1 F# \ALT_INV_contagem10~1_combout\ $end
$var wire 1 G# \ALT_INV_contagem10~0_combout\ $end
$var wire 1 H# \ALT_INV_contagem01~4_combout\ $end
$var wire 1 I# \ALT_INV_contagem01~3_combout\ $end
$var wire 1 J# \ALT_INV_contagem01[3]~1_combout\ $end
$upscope $end
$upscope $end
$enddefinitions $end
#0
$dumpvars
0!
0>
0?
0@
1A
xB
1C
1D
1E
1F
1G
1H
0I
0J
0K
xh
0i
0j
0k
0l
1m
0n
0o
0p
0q
0r
0s
0t
0u
0v
0w
0x
0y
0z
0{
0|
0}
0~
0!!
0"!
0#!
0$!
0%!
0&!
0'!
0(!
0)!
0*!
0+!
0,!
0-!
0.!
0/!
00!
01!
02!
03!
04!
05!
06!
07!
08!
09!
0:!
0;!
0<!
0=!
0>!
0?!
0@!
0A!
0B!
0C!
1D!
0E!
1F!
1G!
0H!
0I!
0J!
0K!
0L!
1M!
0N!
0O!
0P!
0Q!
0R!
0S!
0T!
0U!
0V!
0W!
0X!
0Y!
0Z!
0[!
0\!
0]!
0^!
0_!
0`!
1a!
0b!
0c!
0d!
0e!
0f!
0g!
0h!
0i!
0j!
0k!
0l!
0m!
0n!
0o!
1p!
0q!
0r!
0s!
0t!
0u!
0v!
0w!
0x!
0y!
1z!
0{!
0|!
0}!
0~!
0!"
0""
0#"
0$"
0%"
0&"
0'"
0("
0)"
0*"
0+"
1,"
0-"
0."
0/"
00"
01"
02"
13"
04"
05"
06"
07"
08"
09"
0:"
0;"
0<"
0="
0>"
0?"
0@"
1-#
0.#
1/#
00#
01#
1:#
1;#
1<#
1=#
1>#
1?#
1@#
0A#
1B#
1C#
1D#
1E#
1F#
0G#
1H#
1I#
1J#
0L
0M
0N
0O
0P
0Q
0R
0S
0T
0U
0V
0W
0X
0Y
0Z
0[
0\
0]
0^
0_
0`
0a
0b
0c
0d
0e
0f
0g
0A"
0B"
0C"
0D"
0E"
0F"
0G"
0H"
0I"
0J"
0K"
0L"
0M"
0N"
0O"
0P"
0Q"
0R"
0S"
0T"
0U"
0V"
0W"
0X"
0Y"
0Z"
0["
0\"
0]"
0^"
0_"
0`"
0a"
0b"
0c"
0d"
0e"
0f"
0g"
0h"
0i"
1j"
1k"
1l"
1m"
1n"
1o"
1p"
1q"
1r"
1s"
1t"
1u"
1v"
1w"
1x"
1y"
1z"
1{"
1|"
1}"
1~"
1!#
1"#
1##
1$#
1%#
1&#
1'#
1(#
1)#
1*#
1+#
1,#
12#
13#
14#
15#
16#
17#
18#
19#
0"
0#
0$
0%
0&
0'
0(
0)
0*
0+
0,
0-
0.
0/
00
01
02
03
04
05
06
07
08
09
0:
0;
0<
0=
$end
#1250
1!
1I
1i
1j
1n
1]"
0$#
0;#
0m
1o
1p
#2500
0!
0I
0i
0j
#3750
1!
1I
1i
1j
0n
1\"
0]"
1$#
0##
1;#
1m
0o
0p
1q
1r
1p
0q
0r
#5000
0!
0I
0i
0j
#6250
1!
1I
1i
1j
1n
1]"
0$#
0;#
0m
1o
1E!
0/#
0p
1q
1H!
1]!
1r
0-#
1w!
10"
#7500
0!
0I
0i
0j
#8750
1!
1I
1i
1j
0n
0\"
0]"
1N!
1b!
1{!
14"
1$#
1##
1;#
1m
0o
1p
0q
0E!
1/#
1g
1`
1Y
1R
0r
0p
0H!
0]!
1=
16
1/
1(
1-#
0w!
00"
#10000
0!
0I
0i
0j
#11250
1!
1I
1i
1j
1n
1]"
0$#
0;#
0m
1o
1p
#12500
0!
0I
0i
0j
#13750
1!
1I
1i
1j
0n
1\"
0]"
1$#
0##
1;#
1m
0o
0p
1q
1r
1p
0q
0r
#15000
0!
0I
0i
0j
#16250
1!
1I
1i
1j
1n
1]"
0$#
0;#
0m
1o
1E!
0/#
0p
1q
1H!
1]!
1r
0-#
1w!
10"
#17500
0!
0I
0i
0j
#18750
1!
1I
1i
1j
0n
0\"
0]"
1$#
1##
1;#
1m
0o
1p
0q
0E!
1/#
0r
0p
0H!
0]!
1-#
0w!
00"
#20000
0!
0I
0i
0j
#21250
1!
1I
1i
1j
1n
1]"
0$#
0;#
0m
1o
1p
#22500
0!
0I
0i
0j
#23750
1!
1I
1i
1j
0n
1\"
0]"
1$#
0##
1;#
1m
0o
0p
1q
1r
1p
0q
0r
#25000
0!
0I
0i
0j
#26250
1!
1I
1i
1j
1n
1]"
0$#
0;#
0m
1o
1E!
0/#
0p
1q
1H!
1]!
1r
0-#
1w!
10"
#27500
0!
0I
0i
0j
#28750
1!
1I
1i
1j
0n
0\"
0]"
1$#
1##
1;#
1m
0o
1p
0q
0E!
1/#
0r
0p
0H!
0]!
1-#
0w!
00"
#30000
0!
0I
0i
0j
#31250
1!
1I
1i
1j
1n
1]"
0$#
0;#
0m
1o
1p
#32500
0!
0I
0i
0j
#33750
1!
1I
1i
1j
0n
1\"
0]"
1$#
0##
1;#
1m
0o
0p
1q
1r
1p
0q
0r
#35000
0!
0I
0i
0j
#36250
1!
1I
1i
1j
1n
1]"
0$#
0;#
0m
1o
1E!
0/#
0p
1q
1H!
1]!
1r
0-#
1w!
10"
#37500
0!
0I
0i
0j
#38750
1!
1I
1i
1j
0n
0\"
0]"
1$#
1##
1;#
1m
0o
1p
0q
0E!
1/#
0r
0p
0H!
0]!
1-#
0w!
00"
#40000
0!
0I
0i
0j
#41250
1!
1I
1i
1j
1n
1]"
0$#
0;#
0m
1o
1p
#42500
0!
0I
0i
0j
#43750
1!
1I
1i
1j
0n
1\"
0]"
1$#
0##
1;#
1m
0o
0p
1q
1r
1p
0q
0r
#45000
0!
0I
0i
0j
#46250
1!
1I
1i
1j
1n
1]"
0$#
0;#
0m
1o
1E!
0/#
0p
1q
1H!
1]!
1r
0-#
1w!
10"
#47500
0!
0I
0i
0j
#48750
1!
1I
1i
1j
0n
0\"
0]"
1$#
1##
1;#
1m
0o
1p
0q
0E!
1/#
0r
0p
0H!
0]!
1-#
0w!
00"
#50000
0!
0I
0i
0j
#51250
1!
1I
1i
1j
1n
1]"
0$#
0;#
0m
1o
1p
#52500
0!
0I
0i
0j
#53750
1!
1I
1i
1j
0n
1\"
0]"
1$#
0##
1;#
1m
0o
0p
1q
1r
1p
0q
0r
#55000
0!
0I
0i
0j
#56250
1!
1I
1i
1j
1n
1]"
0$#
0;#
0m
1o
1E!
0/#
0p
1q
1H!
1]!
1r
0-#
1w!
10"
#57500
0!
0I
0i
0j
#58750
1!
1I
1i
1j
0n
0\"
0]"
1$#
1##
1;#
1m
0o
1p
0q
0E!
1/#
0r
0p
0H!
0]!
1-#
0w!
00"
#60000
0!
0I
0i
0j
#61250
1!
1I
1i
1j
1n
1]"
0$#
0;#
0m
1o
1p
#62500
0!
0I
0i
0j
#63750
1!
1I
1i
1j
0n
1\"
0]"
1$#
0##
1;#
1m
0o
0p
1q
1r
1p
0q
0r
#65000
0!
0I
0i
0j
#66250
1!
1I
1i
1j
1n
1]"
0$#
0;#
0m
1o
1E!
0/#
0p
1q
1H!
1]!
1r
0-#
1w!
10"
#67500
0!
0I
0i
0j
#68750
1!
1I
1i
1j
0n
0\"
0]"
1$#
1##
1;#
1m
0o
1p
0q
0E!
1/#
0r
0p
0H!
0]!
1-#
0w!
00"
#70000
0!
0I
0i
0j
#71250
1!
1I
1i
1j
1n
1]"
0$#
0;#
0m
1o
1p
#72500
0!
0I
0i
0j
#73750
1!
1I
1i
1j
0n
1\"
0]"
1$#
0##
1;#
1m
0o
0p
1q
1r
1p
0q
0r
#75000
0!
0I
0i
0j
#76250
1!
1I
1i
1j
1n
1]"
0$#
0;#
0m
1o
1E!
0/#
0p
1q
1H!
1]!
1r
0-#
1w!
10"
#77500
0!
0I
0i
0j
#78750
1!
1I
1i
1j
0n
0\"
0]"
1$#
1##
1;#
1m
0o
1p
0q
0E!
1/#
0r
0p
0H!
0]!
1-#
0w!
00"
#80000
0!
0I
0i
0j
#81250
1!
1I
1i
1j
1n
1]"
0$#
0;#
0m
1o
1p
#82500
0!
0I
0i
0j
#83750
1!
1I
1i
1j
0n
1\"
0]"
1$#
0##
1;#
1m
0o
0p
1q
1r
1p
0q
0r
#85000
0!
0I
0i
0j
#86250
1!
1I
1i
1j
1n
1]"
0$#
0;#
0m
1o
1E!
0/#
0p
1q
1H!
1]!
1r
0-#
1w!
10"
#87500
0!
0I
0i
0j
#88750
1!
1I
1i
1j
0n
0\"
0]"
1$#
1##
1;#
1m
0o
1p
0q
0E!
1/#
0r
0p
0H!
0]!
1-#
0w!
00"
#90000
0!
0I
0i
0j
#91250
1!
1I
1i
1j
1n
1]"
0$#
0;#
0m
1o
1p
#92500
0!
0I
0i
0j
#93750
1!
1I
1i
1j
0n
1\"
0]"
1$#
0##
1;#
1m
0o
0p
1q
1r
1p
0q
0r
#95000
0!
0I
0i
0j
#96250
1!
1I
1i
1j
1n
1]"
0$#
0;#
0m
1o
1E!
0/#
0p
1q
1H!
1]!
1r
0-#
1w!
10"
#97500
0!
0I
0i
0j
#98750
1!
1I
1i
1j
0n
0\"
0]"
1$#
1##
1;#
1m
0o
1p
0q
0E!
1/#
0r
0p
0H!
0]!
1-#
0w!
00"
#100000
0!
0I
0i
0j
#101250
1!
1I
1i
1j
1n
1]"
0$#
0;#
0m
1o
1p
#102500
0!
0I
0i
0j
#103750
1!
1I
1i
1j
0n
1\"
0]"
1$#
0##
1;#
1m
0o
0p
1q
1r
1p
0q
0r
#105000
0!
0I
0i
0j
#106250
1!
1I
1i
1j
1n
1]"
0$#
0;#
0m
1o
1E!
0/#
0p
1q
1H!
1]!
1r
0-#
1w!
10"
#107500
0!
0I
0i
0j
#108750
1!
1I
1i
1j
0n
0\"
0]"
1$#
1##
1;#
1m
0o
1p
0q
0E!
1/#
0r
0p
0H!
0]!
1-#
0w!
00"
#110000
0!
0I
0i
0j
#111250
1!
1I
1i
1j
1n
1]"
0$#
0;#
0m
1o
1p
#112500
0!
0I
0i
0j
#113750
1!
1I
1i
1j
0n
1\"
0]"
1$#
0##
1;#
1m
0o
0p
1q
1r
1p
0q
0r
#115000
0!
0I
0i
0j
#116250
1!
1I
1i
1j
1n
1]"
0$#
0;#
0m
1o
1E!
0/#
0p
1q
1H!
1]!
1r
0-#
1w!
10"
#117500
0!
0I
0i
0j
#118750
1!
1I
1i
1j
0n
0\"
0]"
1$#
1##
1;#
1m
0o
1p
0q
0E!
1/#
0r
0p
0H!
0]!
1-#
0w!
00"
#120000
0!
0I
0i
0j
#121250
1!
1I
1i
1j
1n
1]"
0$#
0;#
0m
1o
1p
#122500
0!
0I
0i
0j
#123750
1!
1I
1i
1j
0n
1\"
0]"
1$#
0##
1;#
1m
0o
0p
1q
1r
1p
0q
0r
#125000
0!
0I
0i
0j
#126250
1!
1I
1i
1j
1n
1]"
0$#
0;#
0m
1o
1E!
0/#
0p
1q
1H!
1]!
1r
0-#
1w!
10"
#127500
0!
0I
0i
0j
#128750
1!
1I
1i
1j
0n
0\"
0]"
1$#
1##
1;#
1m
0o
1p
0q
0E!
1/#
0r
0p
0H!
0]!
1-#
0w!
00"
#130000
0!
0I
0i
0j
#131250
1!
1I
1i
1j
1n
1]"
0$#
0;#
0m
1o
1p
#132500
0!
0I
0i
0j
#133750
1!
1I
1i
1j
0n
1\"
0]"
1$#
0##
1;#
1m
0o
0p
1q
1r
1p
0q
0r
#135000
0!
0I
0i
0j
#136250
1!
1I
1i
1j
1n
1]"
0$#
0;#
0m
1o
1E!
0/#
0p
1q
1H!
1]!
1r
0-#
1w!
10"
#137500
0!
0I
0i
0j
#138750
1!
1I
1i
1j
0n
0\"
0]"
1$#
1##
1;#
1m
0o
1p
0q
0E!
1/#
0r
0p
0H!
0]!
1-#
0w!
00"
#140000
0!
0I
0i
0j
#141250
1!
1I
1i
1j
1n
1]"
0$#
0;#
0m
1o
1p
#142500
0!
0I
0i
0j
#143750
1!
1I
1i
1j
0n
1\"
0]"
1$#
0##
1;#
1m
0o
0p
1q
1r
1p
0q
0r
#145000
0!
0I
0i
0j
#146250
1!
1I
1i
1j
1n
1]"
0$#
0;#
0m
1o
1E!
0/#
0p
1q
1H!
1]!
1r
0-#
1w!
10"
#147500
0!
0I
0i
0j
#148750
1!
1I
1i
1j
0n
0\"
0]"
1$#
1##
1;#
1m
0o
1p
0q
0E!
1/#
0r
0p
0H!
0]!
1-#
0w!
00"
#150000
0!
0I
0i
0j
#151250
1!
1I
1i
1j
1n
1]"
0$#
0;#
0m
1o
1p
#152500
0!
0I
0i
0j
#153750
1!
1I
1i
1j
0n
1\"
0]"
1$#
0##
1;#
1m
0o
0p
1q
1r
1p
0q
0r
#155000
0!
0I
0i
0j
#156250
1!
1I
1i
1j
1n
1]"
0$#
0;#
0m
1o
1E!
0/#
0p
1q
1H!
1]!
1r
0-#
1w!
10"
#157500
0!
0I
0i
0j
#158750
1!
1I
1i
1j
0n
0\"
0]"
1$#
1##
1;#
1m
0o
1p
0q
0E!
1/#
0r
0p
0H!
0]!
1-#
0w!
00"
#160000
0!
0I
0i
0j
#161250
1!
1I
1i
1j
1n
1]"
0$#
0;#
0m
1o
1p
#162500
0!
0I
0i
0j
#163750
1!
1I
1i
1j
0n
1\"
0]"
1$#
0##
1;#
1m
0o
0p
1q
1r
1p
0q
0r
#165000
0!
0I
0i
0j
#166250
1!
1I
1i
1j
1n
1]"
0$#
0;#
0m
1o
1E!
0/#
0p
1q
1H!
1]!
1r
0-#
1w!
10"
#167500
0!
0I
0i
0j
#168750
1!
1I
1i
1j
0n
0\"
0]"
1$#
1##
1;#
1m
0o
1p
0q
0E!
1/#
0r
0p
0H!
0]!
1-#
0w!
00"
#170000
0!
0I
0i
0j
#171250
1!
1I
1i
1j
1n
1]"
0$#
0;#
0m
1o
1p
#172500
0!
0I
0i
0j
#173750
1!
1I
1i
1j
0n
1\"
0]"
1$#
0##
1;#
1m
0o
0p
1q
1r
1p
0q
0r
#175000
0!
0I
0i
0j
#176250
1!
1I
1i
1j
1n
1]"
0$#
0;#
0m
1o
1E!
0/#
0p
1q
1H!
1]!
1r
0-#
1w!
10"
#177500
0!
0I
0i
0j
#178750
1!
1I
1i
1j
0n
0\"
0]"
1$#
1##
1;#
1m
0o
1p
0q
0E!
1/#
0r
0p
0H!
0]!
1-#
0w!
00"
#180000
0!
0I
0i
0j
#181250
1!
1I
1i
1j
1n
1]"
0$#
0;#
0m
1o
1p
#182500
0!
0I
0i
0j
