simulation/qsim/contador.msim.vcd
$comment
	File created using the following command:
		vcd file contador.msim.vcd -direction
$end
$date
	Wed Jun 12 21:34:56 2019
$end
$version
	ModelSim Version 10.5b
$end
$timescale
	1ps
$end

$scope module contador_vhd_vec_tst $end
$var wire 1 ! clock $end
$var wire 1 " LED00_out [0] $end
$var wire 1 # LED00_out [1] $end
$var wire 1 $ LED00_out [2] $end
$var wire 1 % LED00_out [3] $end
$var wire 1 & LED00_out [4] $end
$var wire 1 ' LED00_out [5] $end
$var wire 1 ( LED00_out [6] $end
$var wire 1 ) LED01_out [0] $end
$var wire 1 * LED01_out [1] $end
$var wire 1 + LED01_out [2] $end
$var wire 1 , LED01_out [3] $end
$var wire 1 - LED01_out [4] $end
$var wire 1 . LED01_out [5] $end
$var wire 1 / LED01_out [6] $end
$var wire 1 0 LED10_out [0] $end
$var wire 1 1 LED10_out [1] $end
$var wire 1 2 LED10_out [2] $end
$var wire 1 3 LED10_out [3] $end
$var wire 1 4 LED10_out [4] $end
$var wire 1 5 LED10_out [5] $end
$var wire 1 6 LED10_out [6] $end
$var wire 1 7 LED11_out [0] $end
$var wire 1 8 LED11_out [1] $end
$var wire 1 9 LED11_out [2] $end
$var wire 1 : LED11_out [3] $end
$var wire 1 ; LED11_out [4] $end
$var wire 1 < LED11_out [5] $end
$var wire 1 = LED11_out [6] $end
$var wire 1 > switch $end

$scope module i1 $end
$var wire 1 ? gnd $end
$var wire 1 @ vcc $end
$var wire 1 A unknown $end
$var wire 1 B devoe $end
$var wire 1 C devclrn $end
$var wire 1 D devpor $end
$var wire 1 E ww_devoe $end
$var wire 1 F ww_devclrn $end
$var wire 1 G ww_devpor $end
$var wire 1 H ww_clock $end
$var wire 1 I ww_switch $end
$var wire 1 J ww_LED00_out [0] $end
$var wire 1 K ww_LED00_out [1] $end
$var wire 1 L ww_LED00_out [2] $end
$var wire 1 M ww_LED00_out [3] $end
$var wire 1 N ww_LED00_out [4] $end
$var wire 1 O ww_LED00_out [5] $end
$var wire 1 P ww_LED00_out [6] $end
$var wire 1 Q ww_LED01_out [0] $end
$var wire 1 R ww_LED01_out [1] $end
$var wire 1 S ww_LED01_out [2] $end
$var wire 1 T ww_LED01_out [3] $end
$var wire 1 U ww_LED01_out [4] $end
$var wire 1 V ww_LED01_out [5] $end
$var wire 1 W ww_LED01_out [6] $end
$var wire 1 X ww_LED10_out [0] $end
$var wire 1 Y ww_LED10_out [1] $end
$var wire 1 Z ww_LED10_out [2] $end
$var wire 1 [ ww_LED10_out [3] $end
$var wire 1 \ ww_LED10_out [4] $end
$var wire 1 ] ww_LED10_out [5] $end
$var wire 1 ^ ww_LED10_out [6] $end
$var wire 1 _ ww_LED11_out [0] $end
$var wire 1 ` ww_LED11_out [1] $end
$var wire 1 a ww_LED11_out [2] $end
$var wire 1 b ww_LED11_out [3] $end
$var wire 1 c ww_LED11_out [4] $end
$var wire 1 d ww_LED11_out [5] $end
$var wire 1 e ww_LED11_out [6] $end
$var wire 1 f \~QUARTUS_CREATED_GND~I_combout\ $end
$var wire 1 g \clock~input_o\ $end
$var wire 1 h \clock~inputCLKENA0_outclk\ $end
$var wire 1 i \Equal0~1_combout\ $end
$var wire 1 j \Add8~53_sumout\ $end
$var wire 1 k \Add8~22\ $end
$var wire 1 l \Add8~25_sumout\ $end
$var wire 1 m \Add8~26\ $end
$var wire 1 n \Add8~1_sumout\ $end
$var wire 1 o \clockcounter[10]~DUPLICATE_q\ $end
$var wire 1 p \Equal0~3_combout\ $end
$var wire 1 q \clockcounter~0_combout\ $end
$var wire 1 r \Add8~54\ $end
$var wire 1 s \Add8~57_sumout\ $end
$var wire 1 t \Equal0~2_combout\ $end
$var wire 1 u \Add8~58\ $end
$var wire 1 v \Add8~61_sumout\ $end
$var wire 1 w \clockcounter~1_combout\ $end
$var wire 1 x \Add8~62\ $end
$var wire 1 y \Add8~65_sumout\ $end
$var wire 1 z \clockcounter[3]~DUPLICATE_q\ $end
$var wire 1 { \Add8~66\ $end
$var wire 1 | \Add8~69_sumout\ $end
$var wire 1 } \Add8~70\ $end
$var wire 1 ~ \Add8~73_sumout\ $end
$var wire 1 !! \Add8~74\ $end
$var wire 1 "! \Add8~77_sumout\ $end
$var wire 1 #! \Add8~78\ $end
$var wire 1 $! \Add8~81_sumout\ $end
$var wire 1 %! \Add8~82\ $end
$var wire 1 &! \Add8~85_sumout\ $end
$var wire 1 '! \clockcounter[8]~DUPLICATE_q\ $end
$var wire 1 (! \Add8~86\ $end
$var wire 1 )! \Add8~89_sumout\ $end
$var wire 1 *! \Add8~90\ $end
$var wire 1 +! \Add8~93_sumout\ $end
$var wire 1 ,! \Add8~94\ $end
$var wire 1 -! \Add8~97_sumout\ $end
$var wire 1 .! \Add8~98\ $end
$var wire 1 /! \Add8~29_sumout\ $end
$var wire 1 0! \clockcounter[12]~DUPLICATE_q\ $end
$var wire 1 1! \Add8~30\ $end
$var wire 1 2! \Add8~33_sumout\ $end
$var wire 1 3! \Add8~34\ $end
$var wire 1 4! \Add8~37_sumout\ $end
$var wire 1 5! \Add8~38\ $end
$var wire 1 6! \Add8~41_sumout\ $end
$var wire 1 7! \Add8~42\ $end
$var wire 1 8! \Add8~45_sumout\ $end
$var wire 1 9! \Add8~46\ $end
$var wire 1 :! \Add8~49_sumout\ $end
$var wire 1 ;! \clockcounter[17]~DUPLICATE_q\ $end
$var wire 1 <! \Add8~50\ $end
$var wire 1 =! \Add8~5_sumout\ $end
$var wire 1 >! \Add8~6\ $end
$var wire 1 ?! \Add8~9_sumout\ $end
$var wire 1 @! \Add8~10\ $end
$var wire 1 A! \Add8~13_sumout\ $end
$var wire 1 B! \Add8~14\ $end
$var wire 1 C! \Add8~17_sumout\ $end
$var wire 1 D! \Add8~18\ $end
$var wire 1 E! \Add8~21_sumout\ $end
$var wire 1 F! \Equal0~0_combout\ $end
$var wire 1 G! \Equal0~4_combout\ $end
$var wire 1 H! \switch~input_o\ $end
$var wire 1 I! \contagem00[0]~0_combout\ $end
$var wire 1 J! \Add7~0_combout\ $end
$var wire 1 K! \contagem00[1]~_wirecell_combout\ $end
$var wire 1 L! \contagem00[2]~1_combout\ $end
$var wire 1 M! \contagem00~2_combout\ $end
$var wire 1 N! \Mux6~0_combout\ $end
$var wire 1 O! \LED00_out[6]~reg0_q\ $end
$var wire 1 P! \Mux5~0_combout\ $end
$var wire 1 Q! \LED00_out[5]~reg0_q\ $end
$var wire 1 R! \Mux4~0_combout\ $end
$var wire 1 S! \LED00_out[4]~reg0_q\ $end
$var wire 1 T! \Mux3~0_combout\ $end
$var wire 1 U! \LED00_out[3]~reg0_q\ $end
$var wire 1 V! \Mux2~0_combout\ $end
$var wire 1 W! \LED00_out[2]~reg0_q\ $end
$var wire 1 X! \Mux1~0_combout\ $end
$var wire 1 Y! \LED00_out[1]~reg0_q\ $end
$var wire 1 Z! \Mux0~0_combout\ $end
$var wire 1 [! \LED00_out[0]~reg0_q\ $end
$var wire 1 \! \contagem01[0]~2_combout\ $end
$var wire 1 ]! \contagem01[3]~0_combout\ $end
$var wire 1 ^! \Add2~0_combout\ $end
$var wire 1 _! \Add2~1_combout\ $end
$var wire 1 `! \Add2~2_combout\ $end
$var wire 1 a! \Mux13~0_combout\ $end
$var wire 1 b! \LED01_out[6]~reg0_q\ $end
$var wire 1 c! \Mux12~0_combout\ $end
$var wire 1 d! \LED01_out[5]~reg0_q\ $end
$var wire 1 e! \Mux11~0_combout\ $end
$var wire 1 f! \LED01_out[4]~reg0_q\ $end
$var wire 1 g! \Mux10~0_combout\ $end
$var wire 1 h! \LED01_out[3]~reg0_q\ $end
$var wire 1 i! \Mux9~0_combout\ $end
$var wire 1 j! \LED01_out[2]~reg0_q\ $end
$var wire 1 k! \Mux8~0_combout\ $end
$var wire 1 l! \LED01_out[1]~reg0_q\ $end
$var wire 1 m! \Mux7~0_combout\ $end
$var wire 1 n! \LED01_out[0]~reg0_q\ $end
$var wire 1 o! \contagem10[0]~0_combout\ $end
$var wire 1 p! \contagem10[0]~1_combout\ $end
$var wire 1 q! \contagem10~2_combout\ $end
$var wire 1 r! \contagem10[0]~3_combout\ $end
$var wire 1 s! \contagem10[0]~4_combout\ $end
$var wire 1 t! \Add1~0_combout\ $end
$var wire 1 u! \contagem10~5_combout\ $end
$var wire 1 v! \contagem01~1_combout\ $end
$var wire 1 w! \contagem10[3]~6_combout\ $end
$var wire 1 x! \Add1~1_combout\ $end
$var wire 1 y! \Add1~2_combout\ $end
$var wire 1 z! \Mux20~0_combout\ $end
$var wire 1 {! \LED10_out[6]~reg0_q\ $end
$var wire 1 |! \Mux19~0_combout\ $end
$var wire 1 }! \LED10_out[5]~reg0_q\ $end
$var wire 1 ~! \Mux18~0_combout\ $end
$var wire 1 !" \LED10_out[4]~reg0_q\ $end
$var wire 1 "" \Mux17~0_combout\ $end
$var wire 1 #" \LED10_out[3]~reg0_q\ $end
$var wire 1 $" \Mux16~0_combout\ $end
$var wire 1 %" \LED10_out[2]~reg0_q\ $end
$var wire 1 &" \Mux15~0_combout\ $end
$var wire 1 '" \LED10_out[1]~reg0_q\ $end
$var wire 1 (" \Mux14~0_combout\ $end
$var wire 1 )" \LED10_out[0]~reg0_q\ $end
$var wire 1 *" \contagem11[0]~1_combout\ $end
$var wire 1 +" \contagem11[0]~0_combout\ $end
$var wire 1 ," \contagem11[0]~2_combout\ $end
$var wire 1 -" \Add0~0_combout\ $end
$var wire 1 ." \contagem11[3]~3_combout\ $end
$var wire 1 /" \Add0~1_combout\ $end
$var wire 1 0" \Add0~2_combout\ $end
$var wire 1 1" \Mux27~0_combout\ $end
$var wire 1 2" \LED11_out[6]~reg0_q\ $end
$var wire 1 3" \Mux26~0_combout\ $end
$var wire 1 4" \LED11_out[5]~reg0_q\ $end
$var wire 1 5" \Mux25~0_combout\ $end
$var wire 1 6" \LED11_out[4]~reg0_q\ $end
$var wire 1 7" \Mux24~0_combout\ $end
$var wire 1 8" \LED11_out[3]~reg0_q\ $end
$var wire 1 9" \Mux23~0_combout\ $end
$var wire 1 :" \LED11_out[2]~reg0_q\ $end
$var wire 1 ;" \Mux22~0_combout\ $end
$var wire 1 <" \LED11_out[1]~reg0_q\ $end
$var wire 1 =" \Mux21~0_combout\ $end
$var wire 1 >" \LED11_out[0]~reg0_q\ $end
$var wire 1 ?" contagem00 [3] $end
$var wire 1 @" contagem00 [2] $end
$var wire 1 A" contagem00 [1] $end
$var wire 1 B" contagem00 [0] $end
$var wire 1 C" clockcounter [24] $end
$var wire 1 D" clockcounter [23] $end
$var wire 1 E" clockcounter [22] $end
$var wire 1 F" clockcounter [21] $end
$var wire 1 G" clockcounter [20] $end
$var wire 1 H" clockcounter [19] $end
$var wire 1 I" clockcounter [18] $end
$var wire 1 J" clockcounter [17] $end
$var wire 1 K" clockcounter [16] $end
$var wire 1 L" clockcounter [15] $end
$var wire 1 M" clockcounter [14] $end
$var wire 1 N" clockcounter [13] $end
$var wire 1 O" clockcounter [12] $end
$var wire 1 P" clockcounter [11] $end
$var wire 1 Q" clockcounter [10] $end
$var wire 1 R" clockcounter [9] $end
$var wire 1 S" clockcounter [8] $end
$var wire 1 T" clockcounter [7] $end
$var wire 1 U" clockcounter [6] $end
$var wire 1 V" clockcounter [5] $end
$var wire 1 W" clockcounter [4] $end
$var wire 1 X" clockcounter [3] $end
$var wire 1 Y" clockcounter [2] $end
$var wire 1 Z" clockcounter [1] $end
$var wire 1 [" clockcounter [0] $end
$var wire 1 \" contagem01 [3] $end
$var wire 1 ]" contagem01 [2] $end
$var wire 1 ^" contagem01 [1] $end
$var wire 1 _" contagem01 [0] $end
$var wire 1 `" contagem10 [3] $end
$var wire 1 a" contagem10 [2] $end
$var wire 1 b" contagem10 [1] $end
$var wire 1 c" contagem10 [0] $end
$var wire 1 d" contagem11 [3] $end
$var wire 1 e" contagem11 [2] $end
$var wire 1 f" contagem11 [1] $end
$var wire 1 g" contagem11 [0] $end
$var wire 1 h" \ALT_INV_clockcounter[10]~DUPLICATE_q\ $end
$var wire 1 i" \ALT_INV_clockcounter[8]~DUPLICATE_q\ $end
$var wire 1 j" \ALT_INV_clockcounter[3]~DUPLICATE_q\ $end
$var wire 1 k" \ALT_INV_clockcounter[17]~DUPLICATE_q\ $end
$var wire 1 l" \ALT_INV_clockcounter[12]~DUPLICATE_q\ $end
$var wire 1 m" \ALT_INV_switch~input_o\ $end
$var wire 1 n" \ALT_INV_contagem11[0]~1_combout\ $end
$var wire 1 o" \ALT_INV_contagem11[0]~0_combout\ $end
$var wire 1 p" \ALT_INV_contagem10~5_combout\ $end
$var wire 1 q" \ALT_INV_contagem01~1_combout\ $end
$var wire 1 r" \ALT_INV_contagem10[0]~3_combout\ $end
$var wire 1 s" \ALT_INV_contagem10~2_combout\ $end
$var wire 1 t" \ALT_INV_contagem10[0]~1_combout\ $end
$var wire 1 u" \ALT_INV_contagem10[0]~0_combout\ $end
$var wire 1 v" ALT_INV_contagem11 [3] $end
$var wire 1 w" ALT_INV_contagem11 [2] $end
$var wire 1 x" ALT_INV_contagem11 [1] $end
$var wire 1 y" ALT_INV_contagem11 [0] $end
$var wire 1 z" ALT_INV_contagem10 [3] $end
$var wire 1 {" ALT_INV_contagem10 [2] $end
$var wire 1 |" ALT_INV_contagem10 [1] $end
$var wire 1 }" ALT_INV_contagem10 [0] $end
$var wire 1 ~" ALT_INV_contagem01 [3] $end
$var wire 1 !# ALT_INV_contagem01 [2] $end
$var wire 1 "# ALT_INV_contagem01 [1] $end
$var wire 1 ## ALT_INV_contagem01 [0] $end
$var wire 1 $# \ALT_INV_Equal0~4_combout\ $end
$var wire 1 %# \ALT_INV_Equal0~3_combout\ $end
$var wire 1 &# ALT_INV_clockcounter [24] $end
$var wire 1 '# ALT_INV_clockcounter [23] $end
$var wire 1 (# ALT_INV_clockcounter [22] $end
$var wire 1 )# ALT_INV_clockcounter [21] $end
$var wire 1 *# ALT_INV_clockcounter [20] $end
$var wire 1 +# ALT_INV_clockcounter [19] $end
$var wire 1 ,# ALT_INV_clockcounter [18] $end
$var wire 1 -# ALT_INV_clockcounter [17] $end
$var wire 1 .# ALT_INV_clockcounter [16] $end
$var wire 1 /# ALT_INV_clockcounter [15] $end
$var wire 1 0# ALT_INV_clockcounter [14] $end
$var wire 1 1# ALT_INV_clockcounter [13] $end
$var wire 1 2# ALT_INV_clockcounter [12] $end
$var wire 1 3# ALT_INV_clockcounter [11] $end
$var wire 1 4# ALT_INV_clockcounter [10] $end
$var wire 1 5# ALT_INV_clockcounter [9] $end
$var wire 1 6# ALT_INV_clockcounter [8] $end
$var wire 1 7# ALT_INV_clockcounter [7] $end
$var wire 1 8# ALT_INV_clockcounter [6] $end
$var wire 1 9# ALT_INV_clockcounter [5] $end
$var wire 1 :# ALT_INV_clockcounter [4] $end
$var wire 1 ;# ALT_INV_clockcounter [3] $end
$var wire 1 <# ALT_INV_clockcounter [2] $end
$var wire 1 =# ALT_INV_clockcounter [1] $end
$var wire 1 ># ALT_INV_clockcounter [0] $end
$var wire 1 ?# \ALT_INV_Equal0~2_combout\ $end
$var wire 1 @# \ALT_INV_Equal0~1_combout\ $end
$var wire 1 A# \ALT_INV_Equal0~0_combout\ $end
$var wire 1 B# ALT_INV_contagem00 [3] $end
$var wire 1 C# ALT_INV_contagem00 [2] $end
$var wire 1 D# ALT_INV_contagem00 [1] $end
$var wire 1 E# ALT_INV_contagem00 [0] $end
$var wire 1 F# \ALT_INV_Add8~61_sumout\ $end
$var wire 1 G# \ALT_INV_Add8~53_sumout\ $end
$upscope $end
$upscope $end
$enddefinitions $end
#0
$dumpvars
0!
0>
0?
1@
xA
1B
1C
1D
1E
1F
1G
0H
0I
xf
0g
0h
1i
1j
0k
0l
0m
0n
0o
1p
1q
0r
0s
0t
0u
0v
0w
0x
0y
0z
0{
0|
0}
0~
0!!
0"!
0#!
0$!
0%!
0&!
0'!
0(!
0)!
0*!
0+!
0,!
0-!
0.!
0/!
00!
01!
02!
03!
04!
05!
06!
07!
08!
09!
0:!
0;!
0<!
0=!
0>!
0?!
0@!
0A!
0B!
0C!
0D!
0E!
1F!
0G!
0H!
0I!
1J!
1K!
0L!
1M!
1N!
0O!
0P!
0Q!
0R!
0S!
0T!
0U!
0V!
0W!
0X!
0Y!
0Z!
0[!
1\!
0]!
0^!
0_!
0`!
1a!
0b!
0c!
0d!
0e!
0f!
0g!
0h!
0i!
0j!
0k!
0l!
0m!
0n!
1o!
0p!
0q!
0r!
0s!
0t!
0u!
0v!
0w!
0x!
0y!
1z!
0{!
0|!
0}!
0~!
0!"
0""
0#"
0$"
0%"
0&"
0'"
0("
0)"
1*"
0+"
0,"
0-"
0."
0/"
00"
11"
02"
03"
04"
05"
06"
07"
08"
09"
0:"
0;"
0<"
0="
0>"
1h"
1i"
1j"
1k"
1l"
1m"
0n"
1o"
1p"
1q"
1r"
1s"
1t"
0u"
1$#
0%#
1?#
0@#
0A#
1F#
0G#
0J
0K
0L
0M
0N
0O
0P
0Q
0R
0S
0T
0U
0V
0W
0X
0Y
0Z
0[
0\
0]
0^
0_
0`
0a
0b
0c
0d
0e
0?"
0@"
0A"
0B"
0C"
0D"
0E"
0F"
0G"
0H"
0I"
0J"
0K"
0L"
0M"
0N"
0O"
0P"
0Q"
0R"
0S"
0T"
0U"
0V"
0W"
0X"
0Y"
0Z"
0["
0\"
0]"
0^"
0_"
0`"
0a"
0b"
0c"
0d"
0e"
0f"
0g"
1v"
1w"
1x"
1y"
1z"
1{"
1|"
1}"
1~"
1!#
1"#
1##
1&#
1'#
1(#
1)#
1*#
1+#
1,#
1-#
1.#
1/#
10#
11#
12#
13#
14#
15#
16#
17#
18#
19#
1:#
1;#
1<#
1=#
1>#
1B#
1C#
1D#
1E#
0"
0#
0$
0%
0&
0'
0(
0)
0*
0+
0,
0-
0.
0/
00
01
02
03
04
05
06
07
08
09
0:
0;
0<
0=
$end
#5000
1!
1H
1g
1h
1["
0>#
0j
1r
1G#
1s
0q
#10000
0!
0H
0g
0h
#15000
1!
1H
1g
1h
0["
1Z"
0=#
1>#
1j
0r
0s
1u
0G#
1v
1s
0u
1q
0F#
0v
1w
1F#
0w
#20000
0!
0H
0g
0h
#25000
1!
1H
1g
1h
1["
0>#
0j
1r
1t
0?#
1G#
0s
1u
1G!
1v
0$#
0F#
#30000
0!
0H
0g
0h
#35000
1!
1H
1g
1h
0Z"
1A"
1?"
1O!
1b!
1{!
12"
0B#
0D#
1=#
1s
0u
0t
0J!
0K!
1L!
0M!
0N!
1P!
1?#
1e
1^
1W
1P
0v
0q
1w
0G!
1F#
1=
16
1/
1(
1$#
0w
0L!
#40000
0!
0H
0g
0h
#45000
1!
1H
1g
1h
0["
1Z"
0=#
1>#
1j
0r
0s
1u
0G#
1v
1s
0u
1q
0F#
0v
1w
1F#
0w
#50000
0!
0H
0g
0h
#55000
1!
1H
1g
1h
1["
0>#
0j
1r
1t
0?#
1G#
0s
1u
1G!
1v
0$#
0F#
1L!
#60000
0!
0H
0g
0h
#65000
1!
1H
1g
1h
0Z"
0A"
1@"
0?"
0O!
1Q!
1B#
0C#
1D#
1=#
1s
0u
0t
1J!
1K!
1M!
1R!
1Z!
1?#
1O
0P
0v
0q
1w
0G!
1F#
0(
1'
1$#
0w
#70000
0!
0H
0g
0h
#75000
1!
1H
1g
1h
0["
1Z"
0=#
1>#
1j
0r
0s
1u
0G#
1v
1s
0u
1q
0F#
0v
1w
1F#
0w
#80000
0!
0H
0g
0h
#85000
1!
1H
1g
1h
1["
0>#
0j
1r
1t
0?#
1G#
0s
1u
1G!
1v
0$#
0F#
#90000
0!
0H
0g
0h
#95000
1!
1H
1g
1h
0Z"
1A"
1?"
1S!
1[!
0B#
0D#
1=#
1s
0u
0t
0J!
0K!
0L!
0P!
0R!
1V!
1X!
0Z!
1?#
1J
1N
0v
0q
1w
0G!
1F#
1&
1"
1$#
0w
1L!
#100000
0!
0H
0g
0h
#105000
1!
1H
1g
1h
0["
1Z"
0=#
1>#
1j
0r
0s
1u
0G#
1v
1s
0u
1q
0F#
0v
1w
1F#
0w
#110000
0!
0H
0g
0h
#115000
1!
1H
1g
1h
1["
0>#
0j
1r
1t
0?#
1G#
0s
1u
1G!
1v
0$#
0F#
0L!
#120000
0!
0H
0g
0h
#125000
1!
1H
1g
1h
0Z"
0A"
0@"
0Q!
0S!
1W!
1Y!
0[!
1C#
1D#
1=#
1s
0u
0t
1J!
1K!
0M!
0V!
0X!
1?#
0J
1K
1L
0N
0O
0v
0q
1w
0G!
1F#
0'
0&
1$
1#
0"
1$#
0w
#130000
0!
0H
0g
0h
#135000
1!
1H
1g
1h
0["
1Z"
0=#
1>#
1j
0r
0s
1u
0G#
1v
1s
0u
1q
0F#
0v
1w
1F#
0w
#140000
0!
0H
0g
0h
#145000
1!
1H
1g
1h
1["
0>#
0j
1r
1t
0?#
1G#
0s
1u
1G!
1v
0$#
0F#
#150000
0!
0H
0g
0h
#155000
1!
1H
1g
1h
0Z"
1A"
0?"
0W!
0Y!
1B#
0D#
1=#
1s
0u
0t
0J!
0K!
1L!
1M!
1P!
1V!
1?#
0K
0L
0v
0q
1w
0G!
1F#
0$
0#
1$#
0w
0L!
#160000
0!
0H
0g
0h
#165000
1!
1H
1g
1h
0["
1Z"
0=#
1>#
1j
0r
0s
1u
0G#
1v
1s
0u
1q
0F#
0v
1w
1F#
0w
#170000
0!
0H
0g
0h
#175000
1!
1H
1g
1h
1["
0>#
0j
1r
1t
0?#
1G#
0s
1u
1G!
1v
0$#
0F#
1L!
#180000
0!
0H
0g
0h
#185000
1!
1H
1g
1h
0Z"
0A"
1@"
1?"
1Q!
1W!
0B#
0C#
1D#
1=#
1s
0u
0t
1J!
1K!
0M!
1N!
0P!
1X!
1?#
1L
1O
0v
0q
1w
0G!
1F#
1'
1$
1$#
0w
#190000
0!
0H
0g
0h
#195000
1!
1H
1g
1h
0["
1Z"
0=#
1>#
1j
0r
0s
1u
0G#
1v
1s
0u
1q
0F#
0v
1w
1F#
0w
#200000
0!
0H
0g
0h
#205000
1!
1H
1g
1h
1["
0>#
0j
1r
1t
0?#
1G#
0s
1u
1G!
1v
0$#
0F#
#210000
0!
0H
0g
0h
#215000
1!
1H
1g
1h
0Z"
1A"
0?"
1O!
0Q!
1Y!
1B#
0D#
1=#
1s
0u
0t
0J!
0K!
0L!
0N!
0V!
1?#
1K
0O
1P
0v
0q
1w
0G!
1F#
1(
0'
1#
1$#
0w
1L!
#220000
0!
0H
0g
0h
#225000
1!
1H
1g
1h
0["
1Z"
0=#
1>#
1j
0r
0s
1u
0G#
1v
1s
0u
1q
0F#
0v
1w
1F#
0w
#230000
0!
0H
0g
0h
#235000
1!
1H
1g
1h
1["
0>#
0j
1r
1t
0?#
1G#
0s
1u
1G!
1v
0$#
0F#
0L!
#240000
0!
0H
0g
0h
#245000
1!
1H
1g
1h
0Z"
0A"
0@"
0O!
0W!
1C#
1D#
1=#
1s
0u
0t
1J!
1K!
1M!
1N!
0X!
1?#
0L
0P
0v
0q
1w
0G!
1F#
0(
0$
1$#
0w
#250000
0!
0H
0g
0h
#255000
1!
1H
1g
1h
0["
1Z"
0=#
1>#
1j
0r
0s
1u
0G#
1v
1s
0u
1q
0F#
0v
1w
1F#
0w
#260000
0!
0H
0g
0h
#265000
1!
1H
1g
1h
1["
0>#
0j
1r
1t
0?#
1G#
0s
1u
1G!
1v
0$#
0F#
#270000
0!
0H
0g
0h
#275000
1!
1H
1g
1h
0Z"
1A"
1?"
1O!
0Y!
0B#
0D#
1=#
1s
0u
0t
0J!
0K!
1L!
0M!
0N!
1P!
1?#
0K
1P
0v
0q
1w
0G!
1F#
1(
0#
1$#
0w
0L!
#280000
0!
0H
0g
0h
#285000
1!
1H
1g
1h
0["
1Z"
0=#
1>#
1j
0r
0s
1u
0G#
1v
1s
0u
1q
0F#
0v
1w
1F#
0w
#290000
0!
0H
0g
0h
#295000
1!
1H
1g
1h
1["
0>#
0j
1r
1t
0?#
1G#
0s
1u
1G!
1v
0$#
0F#
1L!
#300000
0!
0H
0g
0h
#305000
1!
1H
1g
1h
0Z"
0A"
1@"
0?"
0O!
1Q!
1B#
0C#
1D#
1=#
1s
0u
0t
1J!
1K!
1M!
1R!
1Z!
1?#
1O
0P
0v
0q
1w
0G!
1F#
0(
1'
1$#
0w
#310000
0!
0H
0g
0h
#315000
1!
1H
1g
1h
0["
1Z"
0=#
1>#
1j
0r
0s
1u
0G#
1v
1s
0u
1q
0F#
0v
1w
1F#
0w
#320000
0!
0H
0g
0h
#325000
1!
1H
1g
1h
1["
0>#
0j
1r
1t
0?#
1G#
0s
1u
1G!
1v
0$#
0F#
#330000
0!
0H
0g
0h
#335000
1!
1H
1g
1h
0Z"
1A"
1?"
1S!
1[!
0B#
0D#
1=#
1s
0u
0t
0J!
0K!
0L!
0P!
0R!
1V!
1X!
0Z!
1?#
1J
1N
0v
0q
1w
0G!
1F#
1&
1"
1$#
0w
1L!
#340000
0!
0H
0g
0h
#345000
1!
1H
1g
1h
0["
1Z"
0=#
1>#
1j
0r
0s
1u
0G#
1v
1s
0u
1q
0F#
0v
1w
1F#
0w
#350000
0!
0H
0g
0h
#355000
1!
1H
1g
1h
1["
0>#
0j
1r
1t
0?#
1G#
0s
1u
1G!
1v
0$#
0F#
0L!
#360000
0!
0H
0g
0h
#365000
1!
1H
1g
1h
0Z"
0A"
0@"
0Q!
0S!
1W!
1Y!
0[!
1C#
1D#
1=#
1s
0u
0t
1J!
1K!
0M!
0V!
0X!
1?#
0J
1K
1L
0N
0O
0v
0q
1w
0G!
1F#
0'
0&
1$
1#
0"
1$#
0w
#370000
0!
0H
0g
0h
#375000
1!
1H
1g
1h
0["
1Z"
0=#
1>#
1j
0r
0s
1u
0G#
1v
1s
0u
1q
0F#
0v
1w
1F#
0w
#380000
0!
0H
0g
0h
#385000
1!
1H
1g
1h
1["
0>#
0j
1r
1t
0?#
1G#
0s
1u
1G!
1v
0$#
0F#
#390000
0!
0H
0g
0h
#395000
1!
1H
1g
1h
0Z"
1A"
0?"
0W!
0Y!
1B#
0D#
1=#
1s
0u
0t
0J!
0K!
1L!
1M!
1P!
1V!
1?#
0K
0L
0v
0q
1w
0G!
1F#
0$
0#
1$#
0w
0L!
#400000
0!
0H
0g
0h
#405000
1!
1H
1g
1h
0["
1Z"
0=#
1>#
1j
0r
0s
1u
0G#
1v
1s
0u
1q
0F#
0v
1w
1F#
0w
#410000
0!
0H
0g
0h
#415000
1!
1H
1g
1h
1["
0>#
0j
1r
1t
0?#
1G#
0s
1u
1G!
1v
0$#
0F#
1L!
#420000
0!
0H
0g
0h
#425000
1!
1H
1g
1h
0Z"
0A"
1@"
1?"
1Q!
1W!
0B#
0C#
1D#
1=#
1s
0u
0t
1J!
1K!
0M!
1N!
0P!
1X!
1?#
1L
1O
0v
0q
1w
0G!
1F#
1'
1$
1$#
0w
#430000
0!
0H
0g
0h
#435000
1!
1H
1g
1h
0["
1Z"
0=#
1>#
1j
0r
0s
1u
0G#
1v
1s
0u
1q
0F#
0v
1w
1F#
0w
#440000
0!
0H
0g
0h
#445000
1!
1H
1g
1h
1["
0>#
0j
1r
1t
0?#
1G#
0s
1u
1G!
1v
0$#
0F#
#450000
0!
0H
0g
0h
#455000
1!
1H
1g
1h
0Z"
1A"
0?"
1O!
0Q!
1Y!
1B#
0D#
1=#
1s
0u
0t
0J!
0K!
0L!
0N!
0V!
1?#
1K
0O
1P
0v
0q
1w
0G!
1F#
1(
0'
1#
1$#
0w
1L!
#460000
0!
0H
0g
0h
#465000
1!
1H
1g
1h
0["
1Z"
0=#
1>#
1j
0r
0s
1u
0G#
1v
1s
0u
1q
0F#
0v
1w
1F#
0w
#470000
0!
0H
0g
0h
#475000
1!
1H
1g
1h
1["
0>#
0j
1r
1t
0?#
1G#
0s
1u
1G!
1v
0$#
0F#
0L!
#480000
0!
0H
0g
0h
#485000
1!
1H
1g
1h
0Z"
0A"
0@"
0O!
0W!
1C#
1D#
1=#
1s
0u
0t
1J!
1K!
1M!
1N!
0X!
1?#
0L
0P
0v
0q
1w
0G!
1F#
0(
0$
1$#
0w
#490000
0!
0H
0g
0h
#495000
1!
1H
1g
1h
0["
1Z"
0=#
1>#
1j
0r
0s
1u
0G#
1v
1s
0u
1q
0F#
0v
1w
1F#
0w
#500000
0!
1>
0H
1I
1H!
0g
0h
0m"
1^!
1_!
1`!
1p!
1t!
1u!
1v!
1x!
1y!
1-"
1/"
10"
0q"
0p"
0t"
#505000
1!
1H
1g
1h
1["
0>#
0j
1r
1t
0?#
1G#
0s
1u
1G!
1v
0$#
0F#
1I!
1L!
1]!
1s!
1w!
1,"
1."
#510000
0!
0H
0g
0h
#515000
1!
1H
1g
1h
0Z"
1B"
1A"
1@"
1?"
1O!
0Y!
1_"
1^"
1]"
1\"
1c"
1b"
1a"
1`"
1g"
1f"
1e"
1d"
0v"
0w"
0x"
0y"
0z"
0{"
0|"
0}"
0~"
0!#
0"#
0##
0B#
0C#
0D#
0E#
1=#
1s
0u
0t
0I!
0K!
0N!
1T!
1V!
1X!
0]!
0p!
0v!
0\!
0a!
1g!
1i!
1k!
0o!
1q!
0u!
0s!
0z!
1""
1$"
1&"
0*"
1+"
0,"
01"
17"
19"
1;"
0o"
1n"
1p"
0s"
1u"
1q"
1t"
1?#
0K
1P
0v
0q
1w
0G!
1s!
0w!
1,"
0."
1F#
1(
0#
1$#
0w
1I!
#520000
0!
0H
0g
0h
#525000
1!
1H
1g
1h
0["
1Z"
0=#
1>#
1j
0r
0s
1u
0G#
1v
1s
0u
1q
0F#
0v
1w
1F#
0w
#530000
0!
0H
0g
0h
