simulation/qsim/contador.msim.vcd
$comment
	File created using the following command:
		vcd file contador.msim.vcd -direction
$end
$date
	Thu Jun 13 02:48:54 2019
$end
$version
	ModelSim Version 10.5b
$end
$timescale
	1ps
$end

$scope module contador_vhd_vec_tst $end
$var wire 1 ! b_reset $end
$var wire 1 " clock $end
$var wire 1 # LED00_out [0] $end
$var wire 1 $ LED00_out [1] $end
$var wire 1 % LED00_out [2] $end
$var wire 1 & LED00_out [3] $end
$var wire 1 ' LED00_out [4] $end
$var wire 1 ( LED00_out [5] $end
$var wire 1 ) LED00_out [6] $end
$var wire 1 * LED01_out [0] $end
$var wire 1 + LED01_out [1] $end
$var wire 1 , LED01_out [2] $end
$var wire 1 - LED01_out [3] $end
$var wire 1 . LED01_out [4] $end
$var wire 1 / LED01_out [5] $end
$var wire 1 0 LED01_out [6] $end
$var wire 1 1 LED10_out [0] $end
$var wire 1 2 LED10_out [1] $end
$var wire 1 3 LED10_out [2] $end
$var wire 1 4 LED10_out [3] $end
$var wire 1 5 LED10_out [4] $end
$var wire 1 6 LED10_out [5] $end
$var wire 1 7 LED10_out [6] $end
$var wire 1 8 LED11_out [0] $end
$var wire 1 9 LED11_out [1] $end
$var wire 1 : LED11_out [2] $end
$var wire 1 ; LED11_out [3] $end
$var wire 1 < LED11_out [4] $end
$var wire 1 = LED11_out [5] $end
$var wire 1 > LED11_out [6] $end
$var wire 1 ? LED_contagem $end
$var wire 1 @ LED_stop $end
$var wire 1 A s_contagem $end
$var wire 1 B s_stop $end

$scope module i1 $end
$var wire 1 C gnd $end
$var wire 1 D vcc $end
$var wire 1 E unknown $end
$var wire 1 F devoe $end
$var wire 1 G devclrn $end
$var wire 1 H devpor $end
$var wire 1 I ww_devoe $end
$var wire 1 J ww_devclrn $end
$var wire 1 K ww_devpor $end
$var wire 1 L ww_clock $end
$var wire 1 M ww_b_reset $end
$var wire 1 N ww_s_stop $end
$var wire 1 O ww_s_contagem $end
$var wire 1 P ww_LED_stop $end
$var wire 1 Q ww_LED_contagem $end
$var wire 1 R ww_LED00_out [0] $end
$var wire 1 S ww_LED00_out [1] $end
$var wire 1 T ww_LED00_out [2] $end
$var wire 1 U ww_LED00_out [3] $end
$var wire 1 V ww_LED00_out [4] $end
$var wire 1 W ww_LED00_out [5] $end
$var wire 1 X ww_LED00_out [6] $end
$var wire 1 Y ww_LED01_out [0] $end
$var wire 1 Z ww_LED01_out [1] $end
$var wire 1 [ ww_LED01_out [2] $end
$var wire 1 \ ww_LED01_out [3] $end
$var wire 1 ] ww_LED01_out [4] $end
$var wire 1 ^ ww_LED01_out [5] $end
$var wire 1 _ ww_LED01_out [6] $end
$var wire 1 ` ww_LED10_out [0] $end
$var wire 1 a ww_LED10_out [1] $end
$var wire 1 b ww_LED10_out [2] $end
$var wire 1 c ww_LED10_out [3] $end
$var wire 1 d ww_LED10_out [4] $end
$var wire 1 e ww_LED10_out [5] $end
$var wire 1 f ww_LED10_out [6] $end
$var wire 1 g ww_LED11_out [0] $end
$var wire 1 h ww_LED11_out [1] $end
$var wire 1 i ww_LED11_out [2] $end
$var wire 1 j ww_LED11_out [3] $end
$var wire 1 k ww_LED11_out [4] $end
$var wire 1 l ww_LED11_out [5] $end
$var wire 1 m ww_LED11_out [6] $end
$var wire 1 n \~QUARTUS_CREATED_GND~I_combout\ $end
$var wire 1 o \clock~input_o\ $end
$var wire 1 p \clock~inputCLKENA0_outclk\ $end
$var wire 1 q \b_reset~input_o\ $end
$var wire 1 r \Add8~5_sumout\ $end
$var wire 1 s \s_stop~input_o\ $end
$var wire 1 t \LED01_out[2]~0_combout\ $end
$var wire 1 u \Add8~6\ $end
$var wire 1 v \Add8~49_sumout\ $end
$var wire 1 w \Add8~50\ $end
$var wire 1 x \Add8~45_sumout\ $end
$var wire 1 y \Add8~46\ $end
$var wire 1 z \Add8~13_sumout\ $end
$var wire 1 { \Add8~14\ $end
$var wire 1 | \Add8~37_sumout\ $end
$var wire 1 } \Add8~38\ $end
$var wire 1 ~ \Add8~33_sumout\ $end
$var wire 1 !! \Add8~34\ $end
$var wire 1 "! \Add8~29_sumout\ $end
$var wire 1 #! \Add8~30\ $end
$var wire 1 $! \Add8~97_sumout\ $end
$var wire 1 %! \Add8~98\ $end
$var wire 1 &! \Add8~41_sumout\ $end
$var wire 1 '! \Add8~42\ $end
$var wire 1 (! \Add8~93_sumout\ $end
$var wire 1 )! \Add8~94\ $end
$var wire 1 *! \Add8~89_sumout\ $end
$var wire 1 +! \Add8~90\ $end
$var wire 1 ,! \Add8~85_sumout\ $end
$var wire 1 -! \clockcounter[11]~feeder_combout\ $end
$var wire 1 .! \Add8~86\ $end
$var wire 1 /! \Add8~81_sumout\ $end
$var wire 1 0! \Add8~82\ $end
$var wire 1 1! \Add8~77_sumout\ $end
$var wire 1 2! \Add8~78\ $end
$var wire 1 3! \Add8~73_sumout\ $end
$var wire 1 4! \Add8~74\ $end
$var wire 1 5! \Add8~69_sumout\ $end
$var wire 1 6! \Add8~70\ $end
$var wire 1 7! \Add8~65_sumout\ $end
$var wire 1 8! \Add8~66\ $end
$var wire 1 9! \Add8~61_sumout\ $end
$var wire 1 :! \Add8~62\ $end
$var wire 1 ;! \Add8~57_sumout\ $end
$var wire 1 <! \Add8~58\ $end
$var wire 1 =! \Add8~53_sumout\ $end
$var wire 1 >! \Equal0~2_combout\ $end
$var wire 1 ?! \Add8~54\ $end
$var wire 1 @! \Add8~1_sumout\ $end
$var wire 1 A! \Add8~2\ $end
$var wire 1 B! \Add8~25_sumout\ $end
$var wire 1 C! \Add8~26\ $end
$var wire 1 D! \Add8~21_sumout\ $end
$var wire 1 E! \Add8~22\ $end
$var wire 1 F! \Add8~17_sumout\ $end
$var wire 1 G! \Add8~18\ $end
$var wire 1 H! \Add8~9_sumout\ $end
$var wire 1 I! \Equal0~0_combout\ $end
$var wire 1 J! \Equal0~1_combout\ $end
$var wire 1 K! \Equal0~3_combout\ $end
$var wire 1 L! \Equal0~4_combout\ $end
$var wire 1 M! \LED_stop~0_combout\ $end
$var wire 1 N! \LED_stop~1_combout\ $end
$var wire 1 O! \LED_stop~reg0_q\ $end
$var wire 1 P! \s_contagem~input_o\ $end
$var wire 1 Q! \LED_contagem~0_combout\ $end
$var wire 1 R! \LED_contagem~reg0_q\ $end
$var wire 1 S! \contagem00[0]~1_combout\ $end
$var wire 1 T! \contagem00[3]~0_combout\ $end
$var wire 1 U! \Add3~0_combout\ $end
$var wire 1 V! \Add3~1_combout\ $end
$var wire 1 W! \Add3~2_combout\ $end
$var wire 1 X! \Mux6~0_combout\ $end
$var wire 1 Y! \LED00_out[6]~reg0_q\ $end
$var wire 1 Z! \Mux5~0_combout\ $end
$var wire 1 [! \LED00_out[5]~reg0_q\ $end
$var wire 1 \! \Mux4~0_combout\ $end
$var wire 1 ]! \LED00_out[4]~reg0_q\ $end
$var wire 1 ^! \Mux3~0_combout\ $end
$var wire 1 _! \LED00_out[3]~reg0_q\ $end
$var wire 1 `! \Mux2~0_combout\ $end
$var wire 1 a! \LED00_out[2]~reg0_q\ $end
$var wire 1 b! \Mux1~0_combout\ $end
$var wire 1 c! \LED00_out[1]~reg0_q\ $end
$var wire 1 d! \Mux0~0_combout\ $end
$var wire 1 e! \LED00_out[0]~reg0_q\ $end
$var wire 1 f! \contagem01[0]~5_combout\ $end
$var wire 1 g! \contagem01[3]~0_combout\ $end
$var wire 1 h! \Add2~0_combout\ $end
$var wire 1 i! \Add2~1_combout\ $end
$var wire 1 j! \Add2~2_combout\ $end
$var wire 1 k! \Mux13~0_combout\ $end
$var wire 1 l! \LED01_out[6]~reg0_q\ $end
$var wire 1 m! \Mux12~0_combout\ $end
$var wire 1 n! \LED01_out[5]~reg0_q\ $end
$var wire 1 o! \Mux11~0_combout\ $end
$var wire 1 p! \LED01_out[4]~reg0_q\ $end
$var wire 1 q! \Mux10~0_combout\ $end
$var wire 1 r! \LED01_out[3]~reg0_q\ $end
$var wire 1 s! \Mux9~0_combout\ $end
$var wire 1 t! \LED01_out[2]~reg0_q\ $end
$var wire 1 u! \Mux8~0_combout\ $end
$var wire 1 v! \LED01_out[1]~reg0_q\ $end
$var wire 1 w! \Mux7~0_combout\ $end
$var wire 1 x! \LED01_out[0]~reg0_q\ $end
$var wire 1 y! \contagem10[0]~0_combout\ $end
$var wire 1 z! \contagem01~1_combout\ $end
$var wire 1 {! \contagem10[0]~1_combout\ $end
$var wire 1 |! \contagem01~2_combout\ $end
$var wire 1 }! \contagem10[0]~2_combout\ $end
$var wire 1 ~! \Add1~0_combout\ $end
$var wire 1 !" \contagem10~3_combout\ $end
$var wire 1 "" \contagem01~3_combout\ $end
$var wire 1 #" \contagem10[3]~4_combout\ $end
$var wire 1 $" \Add1~1_combout\ $end
$var wire 1 %" \Add1~2_combout\ $end
$var wire 1 &" \Mux20~0_combout\ $end
$var wire 1 '" \LED10_out[6]~reg0_q\ $end
$var wire 1 (" \Mux19~0_combout\ $end
$var wire 1 )" \LED10_out[5]~reg0_q\ $end
$var wire 1 *" \Mux18~0_combout\ $end
$var wire 1 +" \LED10_out[4]~reg0_q\ $end
$var wire 1 ," \Mux17~0_combout\ $end
$var wire 1 -" \LED10_out[3]~reg0_q\ $end
$var wire 1 ." \Mux16~0_combout\ $end
$var wire 1 /" \LED10_out[2]~reg0_q\ $end
$var wire 1 0" \Mux15~0_combout\ $end
$var wire 1 1" \LED10_out[1]~reg0_q\ $end
$var wire 1 2" \Mux14~0_combout\ $end
$var wire 1 3" \LED10_out[0]~reg0_q\ $end
$var wire 1 4" \contagem11[0]~2_combout\ $end
$var wire 1 5" \contagem01~4_combout\ $end
$var wire 1 6" \contagem11[0]~0_combout\ $end
$var wire 1 7" \contagem11[0]~1_combout\ $end
$var wire 1 8" \contagem11[0]~3_combout\ $end
$var wire 1 9" \Add0~0_combout\ $end
$var wire 1 :" \contagem11[3]~4_combout\ $end
$var wire 1 ;" \Add0~1_combout\ $end
$var wire 1 <" \Add0~2_combout\ $end
$var wire 1 =" \Mux27~0_combout\ $end
$var wire 1 >" \LED11_out[6]~reg0_q\ $end
$var wire 1 ?" \Mux26~0_combout\ $end
$var wire 1 @" \LED11_out[5]~reg0_q\ $end
$var wire 1 A" \Mux25~0_combout\ $end
$var wire 1 B" \LED11_out[4]~reg0_q\ $end
$var wire 1 C" \Mux24~0_combout\ $end
$var wire 1 D" \LED11_out[3]~reg0_q\ $end
$var wire 1 E" \Mux23~0_combout\ $end
$var wire 1 F" \LED11_out[2]~reg0_q\ $end
$var wire 1 G" \Mux22~0_combout\ $end
$var wire 1 H" \LED11_out[1]~reg0_q\ $end
$var wire 1 I" \Mux21~0_combout\ $end
$var wire 1 J" \LED11_out[0]~reg0_q\ $end
$var wire 1 K" clockcounter [24] $end
$var wire 1 L" clockcounter [23] $end
$var wire 1 M" clockcounter [22] $end
$var wire 1 N" clockcounter [21] $end
$var wire 1 O" clockcounter [20] $end
$var wire 1 P" clockcounter [19] $end
$var wire 1 Q" clockcounter [18] $end
$var wire 1 R" clockcounter [17] $end
$var wire 1 S" clockcounter [16] $end
$var wire 1 T" clockcounter [15] $end
$var wire 1 U" clockcounter [14] $end
$var wire 1 V" clockcounter [13] $end
$var wire 1 W" clockcounter [12] $end
$var wire 1 X" clockcounter [11] $end
$var wire 1 Y" clockcounter [10] $end
$var wire 1 Z" clockcounter [9] $end
$var wire 1 [" clockcounter [8] $end
$var wire 1 \" clockcounter [7] $end
$var wire 1 ]" clockcounter [6] $end
$var wire 1 ^" clockcounter [5] $end
$var wire 1 _" clockcounter [4] $end
$var wire 1 `" clockcounter [3] $end
$var wire 1 a" clockcounter [2] $end
$var wire 1 b" clockcounter [1] $end
$var wire 1 c" clockcounter [0] $end
$var wire 1 d" contagem00 [3] $end
$var wire 1 e" contagem00 [2] $end
$var wire 1 f" contagem00 [1] $end
$var wire 1 g" contagem00 [0] $end
$var wire 1 h" contagem01 [3] $end
$var wire 1 i" contagem01 [2] $end
$var wire 1 j" contagem01 [1] $end
$var wire 1 k" contagem01 [0] $end
$var wire 1 l" contagem10 [3] $end
$var wire 1 m" contagem10 [2] $end
$var wire 1 n" contagem10 [1] $end
$var wire 1 o" contagem10 [0] $end
$var wire 1 p" contagem11 [3] $end
$var wire 1 q" contagem11 [2] $end
$var wire 1 r" contagem11 [1] $end
$var wire 1 s" contagem11 [0] $end
$var wire 1 t" \ALT_INV_s_contagem~input_o\ $end
$var wire 1 u" \ALT_INV_s_stop~input_o\ $end
$var wire 1 v" \ALT_INV_b_reset~input_o\ $end
$var wire 1 w" \ALT_INV_contagem11[0]~2_combout\ $end
$var wire 1 x" \ALT_INV_contagem11[0]~1_combout\ $end
$var wire 1 y" \ALT_INV_contagem11[0]~0_combout\ $end
$var wire 1 z" \ALT_INV_contagem01~4_combout\ $end
$var wire 1 {" \ALT_INV_contagem10~3_combout\ $end
$var wire 1 |" \ALT_INV_contagem01~3_combout\ $end
$var wire 1 }" \ALT_INV_contagem10[0]~1_combout\ $end
$var wire 1 ~" \ALT_INV_contagem10[0]~0_combout\ $end
$var wire 1 !# \ALT_INV_contagem01~2_combout\ $end
$var wire 1 "# \ALT_INV_contagem01~1_combout\ $end
$var wire 1 ## \ALT_INV_contagem00[3]~0_combout\ $end
$var wire 1 $# ALT_INV_contagem11 [3] $end
$var wire 1 %# ALT_INV_contagem11 [2] $end
$var wire 1 &# ALT_INV_contagem11 [1] $end
$var wire 1 '# ALT_INV_contagem11 [0] $end
$var wire 1 (# ALT_INV_contagem10 [3] $end
$var wire 1 )# ALT_INV_contagem10 [2] $end
$var wire 1 *# ALT_INV_contagem10 [1] $end
$var wire 1 +# ALT_INV_contagem10 [0] $end
$var wire 1 ,# ALT_INV_contagem01 [3] $end
$var wire 1 -# ALT_INV_contagem01 [2] $end
$var wire 1 .# ALT_INV_contagem01 [1] $end
$var wire 1 /# ALT_INV_contagem01 [0] $end
$var wire 1 0# ALT_INV_contagem00 [3] $end
$var wire 1 1# ALT_INV_contagem00 [2] $end
$var wire 1 2# ALT_INV_contagem00 [1] $end
$var wire 1 3# ALT_INV_contagem00 [0] $end
$var wire 1 4# \ALT_INV_LED_stop~1_combout\ $end
$var wire 1 5# \ALT_INV_Equal0~4_combout\ $end
$var wire 1 6# \ALT_INV_Equal0~3_combout\ $end
$var wire 1 7# \ALT_INV_Equal0~2_combout\ $end
$var wire 1 8# \ALT_INV_Equal0~1_combout\ $end
$var wire 1 9# \ALT_INV_Equal0~0_combout\ $end
$var wire 1 :# \ALT_INV_LED_stop~reg0_q\ $end
$var wire 1 ;# \ALT_INV_Add8~85_sumout\ $end
$var wire 1 <# ALT_INV_clockcounter [24] $end
$var wire 1 =# ALT_INV_clockcounter [23] $end
$var wire 1 ># ALT_INV_clockcounter [22] $end
$var wire 1 ?# ALT_INV_clockcounter [21] $end
$var wire 1 @# ALT_INV_clockcounter [20] $end
$var wire 1 A# ALT_INV_clockcounter [19] $end
$var wire 1 B# ALT_INV_clockcounter [18] $end
$var wire 1 C# ALT_INV_clockcounter [17] $end
$var wire 1 D# ALT_INV_clockcounter [16] $end
$var wire 1 E# ALT_INV_clockcounter [15] $end
$var wire 1 F# ALT_INV_clockcounter [14] $end
$var wire 1 G# ALT_INV_clockcounter [13] $end
$var wire 1 H# ALT_INV_clockcounter [12] $end
$var wire 1 I# ALT_INV_clockcounter [11] $end
$var wire 1 J# ALT_INV_clockcounter [10] $end
$var wire 1 K# ALT_INV_clockcounter [9] $end
$var wire 1 L# ALT_INV_clockcounter [8] $end
$var wire 1 M# ALT_INV_clockcounter [7] $end
$var wire 1 N# ALT_INV_clockcounter [6] $end
$var wire 1 O# ALT_INV_clockcounter [5] $end
$var wire 1 P# ALT_INV_clockcounter [4] $end
$var wire 1 Q# ALT_INV_clockcounter [3] $end
$var wire 1 R# ALT_INV_clockcounter [2] $end
$var wire 1 S# ALT_INV_clockcounter [1] $end
$var wire 1 T# ALT_INV_clockcounter [0] $end
$upscope $end
$upscope $end
$enddefinitions $end
#0
$dumpvars
0!
0"
0?
1@
0A
0B
0C
1D
xE
1F
1G
1H
1I
1J
1K
0L
0M
0N
0O
1P
0Q
xn
0o
0p
0q
1r
0s
0t
0u
0v
0w
0x
0y
0z
0{
0|
0}
0~
0!!
0"!
0#!
0$!
0%!
0&!
0'!
0(!
0)!
0*!
0+!
0,!
0-!
0.!
0/!
00!
01!
02!
03!
04!
05!
06!
07!
08!
09!
0:!
0;!
0<!
0=!
1>!
0?!
0@!
0A!
0B!
0C!
0D!
0E!
0F!
0G!
0H!
0I!
1J!
1K!
0L!
0M!
0N!
0O!
0P!
0Q!
0R!
1S!
0T!
0U!
0V!
0W!
1X!
0Y!
0Z!
0[!
0\!
0]!
0^!
0_!
0`!
0a!
0b!
0c!
0d!
0e!
1f!
0g!
0h!
0i!
0j!
1k!
0l!
0m!
0n!
0o!
0p!
0q!
0r!
0s!
0t!
0u!
0v!
0w!
0x!
0y!
0z!
1{!
0|!
0}!
0~!
0!"
0""
0#"
0$"
0%"
1&"
0'"
0("
0)"
0*"
0+"
0,"
0-"
0."
0/"
00"
01"
02"
03"
14"
05"
06"
07"
08"
09"
0:"
0;"
0<"
1="
0>"
0?"
0@"
0A"
0B"
0C"
0D"
0E"
0F"
0G"
0H"
0I"
0J"
1t"
1u"
1v"
0w"
1x"
1y"
1z"
1{"
1|"
0}"
1~"
1!#
1"#
1##
14#
15#
06#
07#
08#
19#
1:#
1;#
0R
0S
0T
0U
0V
0W
0X
0Y
0Z
0[
0\
0]
0^
0_
0`
0a
0b
0c
0d
0e
0f
0g
0h
0i
0j
0k
0l
0m
0K"
0L"
0M"
0N"
0O"
0P"
0Q"
0R"
0S"
0T"
0U"
0V"
0W"
0X"
0Y"
0Z"
0["
0\"
0]"
0^"
0_"
0`"
0a"
0b"
0c"
0d"
0e"
0f"
0g"
0h"
0i"
0j"
0k"
0l"
0m"
0n"
0o"
0p"
0q"
0r"
0s"
1$#
1%#
1&#
1'#
1(#
1)#
1*#
1+#
1,#
1-#
1.#
1/#
10#
11#
12#
13#
1<#
1=#
1>#
1?#
1@#
1A#
1B#
1C#
1D#
1E#
1F#
1G#
1H#
1I#
1J#
1K#
1L#
1M#
1N#
1O#
1P#
1Q#
1R#
1S#
1T#
0#
0$
0%
0&
0'
0(
0)
0*
0+
0,
0-
0.
0/
00
01
02
03
04
05
06
07
08
09
0:
0;
0<
0=
0>
$end
#1250
1"
1L
1o
1p
#2500
0"
0L
0o
0p
#3750
1"
1L
1o
1p
#5000
0"
0L
0o
0p
#6250
1"
1L
1o
1p
#7500
0"
0L
0o
0p
#8750
1"
1L
1o
1p
#10000
0"
0L
0o
0p
#11250
1"
1L
1o
1p
#12500
0"
0L
0o
0p
#13750
1"
1L
1o
1p
#15000
0"
0L
0o
0p
#16250
1"
1L
1o
1p
#17500
0"
0L
0o
0p
#18750
1"
1L
1o
1p
#20000
0"
0L
0o
0p
#21250
1"
1L
1o
1p
#22500
0"
0L
0o
0p
#23750
1"
1L
1o
1p
#25000
0"
0L
0o
0p
#26250
1"
1L
1o
1p
#27500
0"
0L
0o
0p
#28750
1"
1L
1o
1p
#30000
0"
0L
0o
0p
#31250
1"
1L
1o
1p
#32500
0"
0L
0o
0p
#33750
1"
1L
1o
1p
#35000
0"
0L
0o
0p
#36250
1"
1L
1o
1p
#37500
0"
0L
0o
0p
#38750
1"
1L
1o
1p
#40000
0"
0L
0o
0p
#41250
1"
1L
1o
1p
#42500
0"
0L
0o
0p
#43750
1"
1L
1o
1p
#45000
0"
0L
0o
0p
#46250
1"
1L
1o
1p
#47500
0"
0L
0o
0p
#48750
1"
1L
1o
1p
#50000
0"
0L
0o
0p
#51250
1"
1L
1o
1p
#52500
0"
0L
0o
0p
#53750
1"
1L
1o
1p
#55000
0"
0L
0o
0p
#56250
1"
1L
1o
1p
#57500
0"
0L
0o
0p
#58750
1"
1L
1o
1p
#60000
0"
0L
0o
0p
#61250
1"
1L
1o
1p
#62500
0"
0L
0o
0p
#63750
1"
1L
1o
1p
#65000
0"
0L
0o
0p
#66250
1"
1L
1o
1p
#67500
0"
0L
0o
0p
#68750
1"
1L
1o
1p
#70000
0"
0L
0o
0p
#71250
1"
1L
1o
1p
#72500
0"
0L
0o
0p
#73750
1"
1L
1o
1p
#75000
0"
0L
0o
0p
#76250
1"
1L
1o
1p
#77500
0"
0L
0o
0p
#78750
1"
1L
1o
1p
#80000
0"
1!
0L
1M
1q
0o
0p
0v"
1t
#81250
1"
1L
1o
1p
1c"
0T#
0r
1u
1I!
09#
1v
1L!
1T!
0##
05#
1M!
1Q!
#82500
0"
0L
0o
0p
#83750
1"
1L
1o
1p
0c"
1O!
1g"
1Y!
1l!
1'"
1>"
03#
0:#
1T#
1r
0u
0I!
0S!
1U!
1Z!
1\!
1^!
1d!
19#
1m
1f
1_
1X
0v
0P
0L!
0T!
1>
17
10
1)
1##
15#
0@
0Q!
#85000
0"
1B
0L
1N
1s
0o
0p
0u"
0t
1N!
04#
0O!
1:#
0M!
1P
1@
#86250
1"
1L
1o
1p
#87500
0"
0L
0o
0p
#88750
1"
1L
1o
1p
#90000
0"
0L
0o
0p
#91250
1"
1L
1o
1p
#92500
0"
0L
0o
0p
#93750
1"
1L
1o
1p
#95000
0"
0L
0o
0p
#96250
1"
1L
1o
1p
#97500
0"
0L
0o
0p
#98750
1"
1L
1o
1p
#100000
0"
0B
0L
0N
0s
0o
0p
1u"
1t
0N!
14#
#101250
1"
1L
1o
1p
1c"
0T#
0r
1u
1I!
09#
1v
1L!
1T!
0##
05#
1M!
1Q!
#102500
0"
0L
0o
0p
#103750
1"
1L
1o
1p
0c"
1O!
0g"
1f"
1[!
1]!
1_!
1e!
02#
13#
0:#
1T#
1r
0u
0I!
1S!
0X!
0\!
0^!
1`!
0d!
19#
1R
1U
1V
1W
0v
0P
0L!
0T!
1(
1'
1&
1#
1##
15#
0@
0Q!
#105000
0"
0L
0o
0p
#106250
1"
1L
1o
1p
1c"
0T#
0r
1u
1I!
09#
1v
1L!
1T!
0##
05#
1Q!
#107500
0"
0L
0o
0p
#108750
1"
1L
1o
1p
0c"
1g"
0Y!
0]!
0_!
1a!
0e!
03#
1T#
1r
0u
0I!
0S!
0U!
1V!
1\!
0`!
19#
0R
1T
0U
0V
0X
0v
0L!
0T!
0)
0'
0&
1%
0#
1##
15#
0Q!
#110000
0"
0L
0o
0p
#111250
1"
1L
1o
1p
1c"
0T#
0r
1u
1I!
09#
1v
1L!
1T!
0##
05#
1Q!
#112500
0"
0L
0o
0p
#113750
1"
1L
1o
1p
0c"
0g"
0f"
1e"
1]!
0a!
01#
12#
13#
1T#
1r
0u
0I!
1S!
1d!
19#
0T
1V
0v
0L!
0T!
1'
0%
1##
15#
0Q!
#115000
0"
0L
0o
0p
#116250
1"
1L
1o
1p
1c"
0T#
0r
1u
1I!
09#
1v
1L!
1T!
0##
05#
1Q!
#117500
0"
0L
0o
0p
#118750
1"
1L
1o
1p
0c"
1g"
1e!
03#
1T#
1r
0u
0I!
0S!
1U!
0Z!
1b!
0d!
19#
1R
0v
0L!
0T!
1#
1##
15#
0Q!
#120000
0"
0L
0o
0p
#121250
1"
1L
1o
1p
1c"
0T#
0r
1u
1I!
09#
1v
1L!
1T!
0##
05#
1Q!
#122500
0"
0L
0o
0p
#123750
1"
1L
1o
1p
0c"
0g"
1f"
0[!
1c!
0e!
02#
13#
1T#
1r
0u
0I!
1S!
0\!
19#
0R
1S
0W
0v
0L!
0T!
0(
1$
0#
1##
15#
0Q!
#125000
0"
0L
0o
0p
#126250
1"
1L
1o
1p
1c"
0T#
0r
1u
1I!
09#
1v
1L!
1T!
0##
05#
1Q!
#127500
0"
0L
0o
0p
#128750
1"
1L
1o
1p
0c"
1g"
0]!
03#
1T#
1r
0u
0I!
0S!
0U!
0V!
1W!
1X!
1Z!
1\!
1^!
0b!
19#
0V
0v
0L!
0T!
0'
1##
15#
0Q!
#130000
0"
0L
0o
0p
#131250
1"
1L
1o
1p
1c"
0T#
0r
1u
1I!
09#
1v
1L!
1T!
0##
05#
1Q!
#132500
0"
0L
0o
0p
#133750
1"
1L
1o
1p
0c"
0g"
0f"
0e"
1d"
1Y!
1[!
1]!
1_!
0c!
00#
11#
12#
13#
1T#
1r
0u
0I!
1S!
0X!
0Z!
0\!
0^!
19#
0S
1U
1V
1W
1X
0v
0L!
0T!
1)
1(
1'
1&
0$
1##
15#
0Q!
#135000
0"
0L
0o
0p
#136250
1"
1L
1o
1p
1c"
0T#
0r
1u
1I!
09#
1v
1L!
1T!
0##
05#
1Q!
#137500
0"
0L
0o
0p
#138750
1"
1L
1o
1p
0c"
1g"
0Y!
0[!
0]!
0_!
03#
1T#
1r
0u
0I!
0S!
1U!
1\!
19#
0U
0V
0W
0X
0v
0L!
0T!
0)
0(
0'
0&
1##
15#
0Q!
#140000
0"
0L
0o
0p
#141250
1"
1L
1o
1p
1c"
0T#
0r
1u
1I!
09#
1v
1L!
1T!
0##
05#
1Q!
#142500
0"
0L
0o
0p
#143750
1"
1L
1o
1p
0c"
0g"
1f"
1]!
02#
13#
1T#
1r
0u
0I!
1S!
1Z!
0\!
19#
1V
0v
0L!
0T!
1'
1##
15#
0Q!
#145000
0"
0L
0o
0p
#146250
1"
1L
1o
1p
1c"
0T#
0r
1u
1I!
09#
1v
1L!
1T!
0##
05#
1Q!
#147500
0"
0L
0o
0p
#148750
1"
1L
1o
1p
0c"
1g"
1[!
0]!
03#
1T#
1r
0u
0I!
0S!
0U!
1V!
0Z!
1b!
1d!
19#
0V
1W
0v
0L!
0T!
1(
0'
1##
15#
0Q!
#150000
0"
1A
0L
1O
1P!
0o
0p
0t"
1U!
0V!
1h!
1i!
1j!
1~!
1!"
1$"
1%"
19"
1;"
1<"
0{"
#151250
1"
1L
1o
1p
1c"
0T#
0r
1u
1I!
09#
1v
1L!
1T!
0##
05#
1Q!
#152500
0"
0L
0o
0p
#153750
1"
1L
1o
1p
0c"
1R!
0g"
0[!
1c!
1e!
13#
1T#
1r
0u
0I!
1S!
0U!
1Z!
0b!
0d!
19#
1R
1S
0W
1Q
0v
0L!
0T!
0(
1$
1#
1?
1##
15#
0Q!
#155000
0"
0L
0o
0p
#156250
1"
1L
1o
1p
1c"
0T#
0r
1u
1I!
09#
1v
1L!
1T!
0##
05#
1Q!
#157500
0"
0L
0o
0p
#158750
1"
1L
1o
1p
0c"
1g"
0f"
1[!
0c!
0e!
12#
03#
1T#
1r
0u
0I!
0S!
0Z!
1\!
19#
0R
0S
1W
0v
0L!
0T!
1(
0$
0#
1##
15#
0Q!
#160000
0"
0L
0o
0p
#161250
1"
1L
1o
1p
1c"
0T#
0r
1u
1I!
09#
1v
1L!
1T!
0##
05#
1Q!
#162500
0"
0L
0o
0p
#163750
1"
1L
1o
1p
0c"
0g"
0[!
1]!
13#
1T#
1r
0u
0I!
1S!
1U!
1V!
0W!
0\!
19#
1V
0W
0v
0L!
0T!
0(
1'
1##
15#
0Q!
#165000
0"
0L
0o
0p
#166250
1"
1L
1o
1p
1c"
0T#
0r
1u
1I!
09#
1v
1L!
1T!
0##
05#
1Q!
#167500
0"
0L
0o
0p
#168750
1"
1L
1o
1p
0c"
1g"
1f"
1e"
0d"
0]!
10#
01#
02#
03#
1T#
1r
0u
0I!
0S!
1X!
1Z!
1\!
1^!
19#
0V
0v
0L!
0T!
0'
1##
15#
0Q!
#170000
0"
0L
0o
0p
#171250
1"
1L
1o
1p
1c"
0T#
0r
1u
1I!
09#
1v
1L!
1T!
0##
05#
1Q!
#172500
0"
0L
0o
0p
#173750
1"
1L
1o
1p
0c"
0g"
1Y!
1[!
1]!
1_!
13#
1T#
1r
0u
0I!
1S!
0U!
0X!
0Z!
0\!
0^!
1b!
19#
1U
1V
1W
1X
0v
0L!
0T!
1)
1(
1'
1&
1##
15#
0Q!
#175000
0"
0L
0o
0p
#176250
1"
1L
1o
1p
1c"
0T#
0r
1u
1I!
09#
1v
1L!
1T!
0##
05#
1Q!
#177500
0"
0L
0o
0p
#178750
1"
1L
1o
1p
0c"
1g"
0f"
0Y!
0[!
0]!
0_!
1c!
12#
03#
1T#
1r
0u
0I!
0S!
1\!
19#
1S
0U
0V
0W
0X
0v
0L!
0T!
0)
0(
0'
0&
1$
1##
15#
0Q!
#180000
0"
0L
0o
0p
#181250
1"
1L
1o
1p
1c"
0T#
0r
1u
1I!
09#
1v
1L!
1T!
0##
05#
1Q!
#182500
0"
0L
0o
0p
#183750
1"
1L
1o
1p
0c"
0g"
1]!
13#
1T#
1r
0u
0I!
1S!
1U!
0V!
1Z!
0b!
1d!
19#
1V
0v
0L!
0T!
1'
1##
15#
0Q!
#185000
0"
1B
0L
1N
1s
0o
0p
0u"
0t
1N!
04#
0O!
1:#
0M!
1P
1@
#186250
1"
1L
1o
1p
#187500
0"
0L
0o
0p
#188750
1"
1L
1o
1p
#190000
0"
0L
0o
0p
#191250
1"
1L
1o
1p
#192500
0"
0L
0o
0p
#193750
1"
1L
1o
1p
#195000
0"
0L
0o
0p
#196250
1"
1L
1o
1p
#197500
0"
0L
0o
0p
#198750
1"
1L
1o
1p
#200000
0"
0B
0L
0N
0s
0o
0p
1u"
1t
0N!
14#
#201250
1"
1L
1o
1p
1c"
0T#
0r
1u
1I!
09#
1v
1L!
1T!
0##
05#
1M!
1Q!
#202500
0"
0L
0o
0p
#203750
1"
1L
1o
1p
0c"
1O!
1g"
1f"
0e"
1[!
0c!
1e!
11#
02#
03#
0:#
1T#
1r
0u
0I!
0S!
0d!
19#
1R
0S
1W
0v
0P
0L!
0T!
1(
0$
1#
1##
15#
0@
0Q!
#205000
0"
0L
0o
0p
